*** Life<ConwayCell> 18x5 ***

Generation = 0, Population = 18.
.....
.*...
.....
.....
.***.
*..**
...**
*..**
....*
*...*
.....
...*.
.*...
...*.
.....
.....
.....
.....

Generation = 26, Population = 4.
.....
.....
**...
**...
.....
.....
.....
.....
.....
.....
.....
.....
.....
.....
.....
.....
.....
.....

*** Life<ConwayCell> 14x1 ***

Generation = 0, Population = 11.
*
*
*
*
*
*
*
*
*
*
.
.
*
.

*** Life<ConwayCell> 8x1 ***

Generation = 0, Population = 5.
*
.
*
.
.
*
*
*

Generation = 10, Population = 0.
.
.
.
.
.
.
.
.

Generation = 20, Population = 0.
.
.
.
.
.
.
.
.

Generation = 30, Population = 0.
.
.
.
.
.
.
.
.

Generation = 40, Population = 0.
.
.
.
.
.
.
.
.

Generation = 50, Population = 0.
.
.
.
.
.
.
.
.

Generation = 60, Population = 0.
.
.
.
.
.
.
.
.

Generation = 70, Population = 0.
.
.
.
.
.
.
.
.

Generation = 80, Population = 0.
.
.
.
.
.
.
.
.

Generation = 90, Population = 0.
.
.
.
.
.
.
.
.

*** Life<ConwayCell> 10x10 ***

Generation = 0, Population = 29.
*......*..
*.....*..*
....*.*...
.........*
*..**...*.
*.....*...
.....*.***
...****.*.
.**..*....
.*....*.*.

Generation = 5, Population = 23.
.....**...
....*..*..
...**.**..
......*...
...**.**..
....**.*..
.....*.*..
...****...
...*......
..........

Generation = 10, Population = 20.
....*..*..
.......*..
...****...
...*......
.....*....
..*...*...
.*....*...
..*.......
..**.**...
.....**...

Generation = 15, Population = 17.
...*......
..**.*....
.*....**..
..***.**..
..*....*..
....*.*...
.....*....
..........
..........
..........

Generation = 20, Population = 15.
..........
..........
........*.
.......*.*
.*...*...*
.**..*.**.
..*..**...
....*.....
..........
..........

Generation = 25, Population = 9.
..........
..........
..........
.**.......
*.*.......
*.........
*.*.......
.**.......
..........
..........

Generation = 30, Population = 9.
..........
..........
..........
.**.......
*.*.......
*.........
*.*.......
.**.......
..........
..........

Generation = 35, Population = 9.
..........
..........
..........
.**.......
*.*.......
*.........
*.*.......
.**.......
..........
..........

Generation = 40, Population = 9.
..........
..........
..........
.**.......
*.*.......
*.........
*.*.......
.**.......
..........
..........

Generation = 45, Population = 9.
..........
..........
..........
.**.......
*.*.......
*.........
*.*.......
.**.......
..........
..........

Generation = 50, Population = 9.
..........
..........
..........
.**.......
*.*.......
*.........
*.*.......
.**.......
..........
..........

Generation = 55, Population = 9.
..........
..........
..........
.**.......
*.*.......
*.........
*.*.......
.**.......
..........
..........

Generation = 60, Population = 9.
..........
..........
..........
.**.......
*.*.......
*.........
*.*.......
.**.......
..........
..........

*** Life<ConwayCell> 12x16 ***

Generation = 0, Population = 23.
*...............
......*........*
.....*.......*.*
.......*...*..*.
...*.*..........
.*...*.....*..*.
.........*......
*...............
..**.*....*.....
................
......*.........
....*...........

Generation = 48, Population = 4.
................
................
................
................
................
................
..**............
..**............
................
................
................
................

*** Life<ConwayCell> 13x16 ***

Generation = 0, Population = 67.
.*.*.*..******.*
.***..*....*....
*.*........***..
...*..*..*.....*
..**..........*.
*.*...*.....**.*
...**.*.*....***
......**........
..*......*.*..*.
........***.*...
.*....**.....**.
....*...**.*..*.
*...***.*.**....

Generation = 16, Population = 23.
................
.............*..
............***.
...........*.*.*
..........***.**
...........*.*.*
............***.
.......*.....*..
......*.*.......
.......*........
................
................
................

Generation = 32, Population = 26.
.............*..
............*.*.
...........**.**
...........**.**
............*.*.
...........*...*
................
.......*..*....*
......*.*.*....*
.......*........
............***.
................
................

Generation = 48, Population = 6.
................
................
................
................
................
................
................
................
.............*..
............*.*.
............*.*.
.............*..
................

Generation = 64, Population = 6.
................
................
................
................
................
................
................
................
.............*..
............*.*.
............*.*.
.............*..
................

*** Life<ConwayCell> 9x18 ***

Generation = 0, Population = 3.
..................
...............*..
.*................
..................
..................
..................
..................
..................
..........*.......

*** Life<ConwayCell> 1x2 ***

Generation = 0, Population = 1.
.*

Generation = 43, Population = 0.
..

*** Life<ConwayCell> 15x20 ***

Generation = 0, Population = 25.
.............*......
............*.*.....
....*........*......
....................
....................
...............*....
...............*....
..................*.
.....*.............*
...*..*.........*...
....*..*......*.*...
..........*.........
........*..*........
.*......**..........
...............*..*.

Generation = 43, Population = 11.
.............*......
............*.*.....
.............*......
....................
....................
....................
....................
....................
....................
....***.............
....................
....................
........**..........
........**..........
....................

*** Life<ConwayCell> 20x18 ***

Generation = 0, Population = 29.
.*...........*....
*....*............
................*.
.**........*......
*......*...*......
.........*........
..................
*.................
.*.......*........
..................
..............*...
..*...............
..........*.......
...*.*.....*......
..................
..................
............*...*.
........*..*......
..**..............
..............*.*.

Generation = 8, Population = 3.
..................
..................
..................
***...............
..................
..................
..................
..................
..................
..................
..................
..................
..................
..................
..................
..................
..................
..................
..................
..................

Generation = 16, Population = 3.
..................
..................
..................
***...............
..................
..................
..................
..................
..................
..................
..................
..................
..................
..................
..................
..................
..................
..................
..................
..................

Generation = 24, Population = 3.
..................
..................
..................
***...............
..................
..................
..................
..................
..................
..................
..................
..................
..................
..................
..................
..................
..................
..................
..................
..................

Generation = 32, Population = 3.
..................
..................
..................
***...............
..................
..................
..................
..................
..................
..................
..................
..................
..................
..................
..................
..................
..................
..................
..................
..................

Generation = 40, Population = 3.
..................
..................
..................
***...............
..................
..................
..................
..................
..................
..................
..................
..................
..................
..................
..................
..................
..................
..................
..................
..................

*** Life<ConwayCell> 16x3 ***

Generation = 0, Population = 26.
*.*
***
***
.**
...
*.*
*.*
..*
...
**.
.**
..*
.**
**.
.*.
.*.

*** Life<ConwayCell> 2x17 ***

Generation = 0, Population = 16.
**..*......*...*.
*.***.**.**.*..**

Generation = 22, Population = 8.
..........**...**
..........**...**

*** Life<ConwayCell> 14x3 ***

Generation = 0, Population = 24.
**.
.**
.*.
*.*
**.
..*
**.
*..
**.
**.
**.
***
.*.
*..

Generation = 12, Population = 4.
.**
.**
...
...
...
...
...
...
...
...
...
...
...
...

Generation = 24, Population = 4.
.**
.**
...
...
...
...
...
...
...
...
...
...
...
...

Generation = 36, Population = 4.
.**
.**
...
...
...
...
...
...
...
...
...
...
...
...

Generation = 48, Population = 4.
.**
.**
...
...
...
...
...
...
...
...
...
...
...
...

*** Life<ConwayCell> 6x16 ***

Generation = 0, Population = 61.
..******.**.*.**
****.*.....**.*.
.***..*.**.**.**
***..*...*.****.
..***.***.*****.
***.*.*****.*.**

Generation = 24, Population = 4.
................
................
......**........
......**........
................
................

Generation = 48, Population = 4.
................
................
......**........
......**........
................
................

*** Life<ConwayCell> 19x5 ***

Generation = 0, Population = 52.
...*.
**.**
*****
****.
*...*
**.*.
.*.**
..***
..***
.*.**
..**.
**.*.
.**..
***.*
*.**.
*....
.....
....*
*****

Generation = 15, Population = 11.
.....
.....
.....
.....
.....
**...
**...
.....
.....
.....
.....
.....
.**..
*.*..
*....
**...
.....
.....
.....

*** Life<ConwayCell> 19x5 ***

Generation = 0, Population = 16.
.....
.*...
.*...
*....
....*
..**.
.....
.....
.....
.*...
...*.
*....
..**.
.***.
....*
.....
*....
.....
.....

Generation = 7, Population = 14.
.....
.....
.....
.....
.....
.....
.....
.....
.....
.....
..**.
.**.*
**.**
.**.*
..**.
.....
.....
.....
.....

Generation = 14, Population = 10.
.....
.....
.....
.....
.....
.....
.....
.....
.....
.***.
.....
.*.*.
.....
.*.*.
.....
.***.
.....
.....
.....

Generation = 21, Population = 16.
.....
.....
.....
.....
.....
.....
.....
..*..
.*.*.
*...*
.*.*.
..*..
.....
..*..
.*.*.
*...*
.*.*.
..*..
.....

Generation = 28, Population = 28.
.....
.....
.....
.....
.....
.....
..*..
.***.
*...*
*.*.*
*...*
.***.
.....
.***.
*...*
*.*.*
*...*
*...*
.*.*.

Generation = 35, Population = 29.
.....
.....
.....
.....
.....
..*..
.***.
*...*
*.*.*
*.*.*
*...*
.***.
.....
.***.
*.*.*
**.**
.*.*.
.....
.....

Generation = 42, Population = 31.
.....
.....
.....
.....
..*..
.***.
.***.
.....
.....
..*..
..*..
.....
.*.*.
**.**
*.*.*
**.**
*.*.*
.***.
.***.

Generation = 49, Population = 26.
.....
.....
..*..
.***.
*.*.*
**.**
*.*.*
.***.
..*..
.....
.....
.....
.....
.....
.....
.....
**.**
**.**
.....

*** Life<ConwayCell> 3x11 ***

Generation = 0, Population = 22.
..**.**.***
.*.***..***
**.**.*.***

Generation = 22, Population = 9.
.***.......
*...*......
****.......

Generation = 44, Population = 9.
.***.......
*...*......
****.......

*** Life<ConwayCell> 4x14 ***

Generation = 0, Population = 35.
*.*..**..*..**
...***.*******
****.**.*..*..
*****..**.*.**

Generation = 9, Population = 0.
..............
..............
..............
..............

Generation = 18, Population = 0.
..............
..............
..............
..............

Generation = 27, Population = 0.
..............
..............
..............
..............

Generation = 36, Population = 0.
..............
..............
..............
..............

Generation = 45, Population = 0.
..............
..............
..............
..............

Generation = 54, Population = 0.
..............
..............
..............
..............

Generation = 63, Population = 0.
..............
..............
..............
..............

Generation = 72, Population = 0.
..............
..............
..............
..............

Generation = 81, Population = 0.
..............
..............
..............
..............

Generation = 90, Population = 0.
..............
..............
..............
..............

Generation = 99, Population = 0.
..............
..............
..............
..............

*** Life<ConwayCell> 3x14 ***

Generation = 0, Population = 26.
*...******.***
*.******.*.*..
****.*..*.*...

Generation = 44, Population = 0.
..............
..............
..............

*** Life<ConwayCell> 2x2 ***

Generation = 0, Population = 2.
.*
*.

Generation = 33, Population = 0.
..
..
