*** Life<Cell> 5x15 ***

Generation = 0, Population = 16.
--------0-0--0-
0-----0--0-----
--0------0-----
0---0------00-0
--0------00----

*** Life<Cell> 15x9 ***

Generation = 0, Population = 28.
0------0-
0---00---
------0--
--0---00-
0-0------
00-------
0----0--0
--0-0----
-0-00----
0--0000--
---------
---------
------0--
------0--
---------

Generation = 11, Population = 54.
..-.1..*-
.-.....-*
0*.1.....
**1.*0***
*-*-*-..*
.**.*..10
*..01.**.
*-..*1--.
-**-.1...
1....****
.--.*..*.
0-.1....*
...*.0-**
-.*..*11.
--.*.-.0-

Generation = 22, Population = 24.
..**....0
.1*..*.-.
-..*.*...
.....**..
.1.-.*...
....*....
.**-.....
*..*.-.-.
*........
.........
*-.......
*..*.....
..*..-...
*........
*-.....-.

*** Life<Cell> 20x6 ***

Generation = 0, Population = 21.
------
------
---0--
------
0-----
--0---
------
------
------
0----0
--0-0-
---0--
------
0---00
---00-
0-----
00-0--
--0---
0---0-
-----0

Generation = 4, Population = 42.
0--0--
--0---
-----0
------
--1-0-
-----1
--101-
---1--
0-----
*0-1-0
*--0--
0----*
00-*-0
-0-01.
--*.1-
-100.*
1.*-1-
-0--.-
--1.--
00*0--

Generation = 8, Population = 53.
-.----
*-0--0
*1*01-
--*0--
---10-
*---11
01.*.0
.-*.1-
-1-1--
*...1*
*-**-*
*-0-0.
---.1-
---0..
0-**.-
*.1*..
-*.*-*
-0*-.-
0**.11
.*..-*

Generation = 12, Population = 43.
*.*10-
.1-0*-
*1.-.*
-*.--.
-----1
*-11-*
-*.*.-
*1****
----1-
...*..
.-**..
.**1..
--.*.-
-*-*..
*-...-
..1..*
-.....
--*-.-
*....-
****-.

Generation = 16, Population = 37.
...*11
..*0.0
...*..
-..--.
.-**-.
.-.*-.
-....-
....*.
-.1*.-
...*..
.1..**
....**
**...-
1.-...
.1...1
..1...
-*.*..
-**1*-
*...**
.***-.

Generation = 20, Population = 49.
..*.-.
.....*
..***.
-..-0.
....1.
.-.***
-.*.**
.**...
-.***-
.**..*
*-..**
.*...*
*.****
.*-*..
.1*..-
......
.****.
**.***
*.*.**
.*....

Generation = 24, Population = 35.
....**
...*.*
..**..
-...0.
.**.-.
*-*...
*.***.
....**
-...**
....**
.-.***
...***
......
.*1...
*-...-
..*...
*.*...
......
**....
......

Generation = 28, Population = 23.
...***
.**...
*..*.*
*...0.
****.*
.1....
......
......
-.....
......
.-....
..**..
.*.*..
.**...
.1...-
......
......
......
......
......

Generation = 32, Population = 24.
...**.
......
....*.
**..-.
**..**
*.....
.*....
......
-.....
......
.1*...
**.*..
**.*..
..*...
**...-
**....
......
......
......
......

*** Life<Cell> 12x16 ***

Generation = 0, Population = 20.
0---------------
0---------------
---0--------0-0-
-------------0--
--------------0-
-----------0----
-----0----------
--0-------------
----0----0---0--
-----0-------0--
-------------0--
-------0--0-00--

Generation = 19, Population = 72.
..-.......-*...*
**...1-..---..**
..-...*.**.*....
*....*****.*.-*-
*.*.-.-*-.**.*.*
.*...*-*..-..*..
.*1..*-*.**-.**.
...0***-**.**..*
...1****.1.0-...
.**.**.*.....*--
*...0....*-...-.
-0****.***1.-...

*** Life<Cell> 9x20 ***

Generation = 0, Population = 22.
-0--0-0-0------0----
----0----------0----
-------0------------
---------0----------
----0---------------
------000-0----0----
----0-------------0-
------------0---0---
----0------------00-

*** Life<Cell> 16x19 ***

Generation = 0, Population = 27.
------0------------
-------------------
------------0------
-------------------
----0--0-----------
------0------------
-------------------
------------0-----0
---0--------0---0--
----0------0-----0-
-----0-------------
0-----0------------
-0-0---00---------0
-0-----------------
------0---------0--
----0-0--0---------

Generation = 19, Population = 111.
0**--......-*-.0.*-
.-**1..1..-.-.-*-.*
*-**.***.....**...*
**-.-.-**.0**..**.*
-.***...*....**.**.
*.*.*..--......*...
*.*...-..-....-*.1-
*.-..*1*..1...**...
.*1*..**.0...0...0.
...*.*.**0*...*.**.
-.*-.*....*0..-1*.*
.*..-.....**..*-.1*
*....1**.**.*.-.*-*
.**..*..*.-*....*0*
-..**......*..**-*1
.....-......***.---

Generation = 38, Population = 48.
...........*....*..
...........*....*..
...........**.**...
...................
.........*.........
...........**......
...................
..**...**.*.*......
..*...**...*....**.
...*.*.........*..*
...-..*...........*
...*.*............*
..*..*.....*.*....*
..**.......*.***.*.
-..........*.*..*..
............*......

*** Life<Cell> 9x12 ***

Generation = 0, Population = 16.
---0------0-
-0----------
0-0---000-0-
------------
----0----00-
0----------0
-----0-0----
------------
------------

*** Life<Cell> 5x20 ***

Generation = 0, Population = 30.
00-0-------------00-
--00-0-0-0--0---0-0-
00--00-------------0
0---00----0---0-----
--00----0-0-00---0--

Generation = 15, Population = 32.
...****.-.**-......-
*.**....*0..*.-..-..
1..-..**.1.-....1...
*...-...-*...***1-..
.********..-...-.1.-

*** Life<Cell> 14x9 ***

Generation = 0, Population = 12.
---------
---------
00--0--0-
---------
---------
---------
---------
---------
--------0
----000--
---------
---------
-0-----0-
----0-0--

Generation = 15, Population = 48.
.*---.*-*
**-*....*
**....*..
-..-*-*.*
.1**-**--
*---.1*.*
..**....*
...-..*-*
-...-.*..
.*.**.**.
.*..*-1-1
0..*...1*
...**.*.*
0-....**.

Generation = 30, Population = 29.
.......-.
.........
.........
.**1*....
****..*-.
......*..
.**....*.
..*****-.
.......**
.........
....*1...
..***....
.*.......
-1**.....

*** Life<Cell> 12x6 ***

Generation = 0, Population = 10.
-0--0-
0-----
-0----
------
0-----
------
-0----
------
------
-0----
00-0--
------

Generation = 16, Population = 31.
-**.*.
*..-**
.*-...
.-*.**
....1*
**-..1
*-0.--
*.-***
*.**..
*.1.-.
***...
..*.1-

*** Life<Cell> 17x12 ***

Generation = 0, Population = 2.
------------
------------
------------
-----0------
------------
------------
-----0------
------------
------------
------------
------------
------------
------------
------------
------------
------------
------------

Generation = 4, Population = 7.
------------
------------
-----1------
-0-------0--
-----.------
-----.------
-0-------0--
-----1------
------------
------------
-----0------
------------
------------
------------
------------
------------
------------

Generation = 8, Population = 14.
-----0------
------------
-----1------
-1---------0
-.-1-.-1-.--
-.-1-.-1-.--
-1---0-----0
-----*------
-----.------
-----.------
------------
-----1------
------------
------------
-----0------
------------
------------

Generation = 12, Population = 63.
-1-0-0-0-0--
-0-1---1----
0-0------1-0
0-01011.----
*.**1.1.-.01
*...-*1.1.01
01-.-10--*--
0--1..*-01-0
-01-*.*-0---
---01.10----
-0--000----0
-0---*---0--
-----.------
-----.------
-0-------0--
-----1------
-----0------

Generation = 16, Population = 65.
1.**1-1.--1-
*.-.*-1.1-0-
*--1-.-.---0
11..-1-.**11
....-*1*-.--
...**.*.**11
..1.*-.-1.-*
1.**....----
-1.0**.1.*0*
-10....--0--
0*---.-*0*0-
0*-*-.*-1---
-1-1-.-1-.--
---1-.-1-.--
------------
-----.------
-----.------

Generation = 20, Population = 80.
...**-..-1.1
*.*.*-..11-0
**.1*...0***
-*.***1..*1*
....-..*-.-1
...**..*..-*
.....-.*..0.
-...**..1.--
-.*0*...*.0.
-*-*.*.-1-0-
1.-1-.*.-..-
1.1...*0.---
0.1*-.0.-.-*
*--.1.1***--
0-0.1-0.0-0-
01-*-.1-10--
-0-*-.-*----

Generation = 24, Population = 67.
..**.1.*-...
.*...**.*.*-
....**..-***
1***.**....*
....-*.*-*-*
........*.1*
..**.-..*.-*
-*.***.....-
-....*......
-.*..**1.--.
*.-**..*...0
.......*.---
-.1.-.-...0.
*1*..*.*.*-.
-*-..*-.---*
-1-*-..11.00
--0*0.-.----

Generation = 28, Population = 69.
.*.*..**1...
*..*.*...*.-
*.*..*..**.*
.....*....**
........-.**
...**......*
....***..*-*
-...*...**.*
-.*..**.....
-*..**...0-.
..0..*.*..**
.......**-.*
...*1.-...-*
...*......*.
-.0**.1..*1.
-*.*-**....-
-1***.-***-.

Generation = 32, Population = 63.
...******...
..*.....*..-
..*.***.....
......*.....
..**.*..-...
...**.......
...**.....-.
-..**.......
0..**.*.*...
1...*.***1-.
..0....*.*.*
........*-.*
...*..1*..**
.***.......*
-.1...*...*.
*.**-*....*0
.1*...****-.

Generation = 36, Population = 52.
...******...
.*.......*.-
.*.*..*.*...
**..........
***...**1...
**..........
.**.......-.
.**.........
1....****...
.....*..**-.
..-......**.
.....**.*-.*
.......***.*
........*..*
-.1.......*.
....-...***.
..........1.

Generation = 40, Population = 38.
............
....*...**.-
.....**.*...
......**.*..
.......***..
............
......*.*.-.
....**.*....
-......*.*..
....*.*.**1.
..-......**.
.......**-.*
......*..*.*
.......*.**.
-.-....***..
....-.......
............

Generation = 44, Population = 40.
......***...
....**.*.*.-
...*.....**.
.......*..*.
..........*.
....**......
.....*...*-.
....**......
-....*......
..........**
..-........*
......*.*1..
.....**....*
.....**.*..*
-.-...**....
....-..****.
........*...

*** Life<Cell> 19x15 ***

Generation = 0, Population = 13.
------------0--
---------------
---------0-----
---------0-----
----0----------
---------------
---------------
---0-----------
------------0--
-----------0--0
---------------
-------------0-
---------------
0-------0--0---
---------------
---------------
---------------
---------------
--0------------

Generation = 2, Population = 45.
---------00-0-0
---------1-----
----0--0---00--
-------0---0---
--0---0--1-----
---0-----0-----
----0-------0--
-0---0-----0--0
----------0---1
---0-----0--0-0
------------0--
0-------0--0--1
---------------
0-0---0--11----
---------------
0-------0--0---
--0------------
---------------
0-0-0----------

Generation = 4, Population = 44.
----0---10----0
---------.-----
-----1------*1-
---0-0-------0-
0-------1.-----
-----------0--0
---------1-----
-------0-0---1-
----0---0-----1
0------01-01*--
---------------
---0-----1---1-
------------0--
--0----1-..10-0
--1------------
-------------0-
--0------------
1-------0--0---
0-----0--------

Generation = 6, Population = 106.
--0-01-1*-*0-1-
---0-1--1.0--1-
0--11.-1--01.--
-0-0-*-1-1----1
0-0--10-1.--01-
---0-0-0-*--110
0---0--1-.-1--1
0----0--1*1-1-1
--0------01---1
0-00-01*1--1.-*
----0---1-----0
001--0-01-1---*
--1-----------1
0--100---.**00-
0-.-0-----0-1--
0-0----00--01-1
--0-0-0--------
.-1---1--11----
----0-0-1------

Generation = 8, Population = 86.
----*--.*-*-0.-
-----.1-.*-1-.1
-0-...-.0-0..--
-0---.-.1-0*1--
--0--.*01*01---
0------*1*---*-
-------.0*0----
---0----*.1-11-
----0--1-0--1--
---*---.-011.1*
--0----1-1----0
-----0---1--0-*
--*-1---10----*
*-1.--11-.*.-*0
01.0*---11--1--
*-*1-----1-*---
--0-------1-1--
*-.-----0..---0
----0-----1----

Generation = 10, Population = 125.
-00-**1*****0.-
-1---.1-..-10*-
--1..*-.**-.*1-
1--1-*-.--*.*--
10--0.**1.--0*-
0110--0*1*-1-.-
--0-0--.-*0----
10-0-00-*.*-1.-
---1-11--*-0.-*
-00.0--.--1...*
0-0001--11-1---
1-----1*-1*-01.
--*-----*0---0*
.-*.--..1...-*0
*..0*1-0*--01--
.1.-000-1*-**--
-1*00----0-1--1
*1.---1--*.01-0
--0-0-1-*------

Generation = 12, Population = 125.
10*0.*****..0.-
1.--1..-..0--**
--1...-...1..-1
*1---*0.-1...*1
*--10...1**10*1
-..*-*0...111*0
-1*0-0-*-.0--01
**1*-0--**.--*-
10-.1----*1-*-.
0*0.***.---.***
-10-*.0-.1---1-
.1---0**1..1*-*
-1.11-1-.0-0--.
.1..**.*-...-.0
...-.1--*--0--1
*..---*--.-.*-*
0*.-0------1-1.
*-.--1*1-..-.0-
*0-0--*-.011--1

Generation = 14, Population = 123.
10.-*....**.0*-
..01-..1..-*-..
-1-...1....***1
**0-0.-.-*.**.*
.--1*.......-.*
-**.-.*...*...*
11*-001.1.*--*-
..*.-*10*.*--.-
.--..**1-**0.1*
0.0.*.**1-*....
-.0-..01*1-*-.-
*-1-1**.**.1.-*
1-..--*-.0---1.
.***.*.*1***-.-
*..-**0-.*---11
***-*-*-*.0..-.
-..1-0--00-1-..
.*.-0*..1**0.*-
*----0*-*--.1--

*** Life<Cell> 14x9 ***

Generation = 0, Population = 9.
----0--0-
---------
-------0-
---0-----
---------
---------
00-------
---------
------0--
---------
---------
----0----
---0-----
---------

Generation = 20, Population = 37.
...-...*.
1.-.11.**
.......*.
..-...*..
....****.
...*.*1--
..*......
-..*.*-0*
..**..**0
.-...10.*
0*.*-1..*
.-......*
..0..1...
..1....-.

Generation = 40, Population = 19.
...-.....
-.-.*....
....*..**
..0**..**
.........
***.....-
..*......
**.......
.........
.....*1..
-...**...
.........
.........
.......-.

*** Life<Cell> 8x9 ***

Generation = 0, Population = 15.
--0------
-0-0--0--
--0--0---
------0--
------0--
---0-----
--0------
0-00-00--

Generation = 3, Population = 35.
--------0
0-0--1-0-
--11*0*10
-----0*01
0-0--*-01
---1000-0
-010--*-0
-1-.-1*-1

Generation = 6, Population = 30.
-0-11--1-
--.--.01*
----.-**-
--100-.1*
-1---.--.
-0**-.00-
1-*---.11
0*-****-.

Generation = 9, Population = 26.
-0***-0.0
--*-*.--.
0---.0*.-
*-*1-..-.
-*-1-.-0.
-1.*-.*-0
.-*---.-*
0.0...*-.

Generation = 12, Population = 28.
-1.***0.-
0-.*..0-.
.1--****-
.-.*1....
*.0*0.*0*
-...1*.0.
.-.1--.-.
-*1......

Generation = 15, Population = 26.
01.**.1*-
--....1-.
.*.-*..*0
.0*.*.**.
....*.**.
1...1....
.-.---.**
0.*.*....

Generation = 18, Population = 19.
-***..-*-
--*....*.
...-....*
.-..*..**
...**..*.
-..**.**.
.-.1-*...
-........

Generation = 21, Population = 25.
***...-.*
*-.**....
...1...**
.-.*...**
...****.*
-.**....*
.-.*-..*.
-...**...

Generation = 24, Population = 25.
*****.-..
*0..***.*
*..-..*..
.-...**.*
......*..
-....**..
.*..0**..
-..**....

Generation = 27, Population = 21.
.****.**.
.-*.....*
*..**..*.
.-...*...
.....**..
-.....*..
...*1*...
-..*.*...

Generation = 30, Population = 12.
.....*.*.
.-.......
....*....
.-..*..*.
....*..*.
-...*..*.
....-..*.
-....**..

Generation = 33, Population = 12.
.........
.-.......
.........
.-.**....
..***....
-..*.....
....***..
-...***..

Generation = 36, Population = 8.
.........
.-.......
.........
.1.......
.*.......
-*.**....
..**.....
-...*....

*** Life<Cell> 20x10 ***

Generation = 0, Population = 31.
---00---0-
--0-----00
----------
---0-0-00-
-0--------
---0------
0--------0
----------
--0-------
--0--0--0-
-----0----
----------
---------0
---0------
------00--
-0------0-
---0------
----------
--0---0---
---00----0

*** Life<Cell> 6x15 ***

Generation = 0, Population = 16.
-----0----00-0-
---0-----------
0---0----------
-----0---0-0---
00---0---0-----
-0---------0---

Generation = 12, Population = 29.
-.-...1.1..-0*.
...*0***-.1.-1*
..-..*-...*...-
-.-.1...-..1*.*
*.*..*.-**.*..-
1.1-0.1--1..--.

Generation = 24, Population = 19.
-.-.*...1.**1..
..**....-..*...
...*.**..**....
-.0.*.....*-...
..........*....
...--.-..**..-.

Generation = 36, Population = 16.
0**...*........
*.....*.-......
*.....*........
*.*.*.*........
......*.*......
......**.....-.

Generation = 48, Population = 9.
...............
..........*....
........*..*...
........*..*...
.......*..*....
.......**....-.

*** Life<Cell> 20x11 ***

Generation = 0, Population = 30.
-----------
-----0--0--
-----------
--0--------
---0-0-----
----00-----
00-------0-
-0---------
--00---000-
------0--0-
-0---------
----0--0---
-----------
----0------
-0----0---0
-----------
-----------
--------0--
0-0---0----
----------0

Generation = 4, Population = 65.
---1-0-----
-1----..110
10-------0-
*1----0----
-01*-.--1--
11---1.----
*-1-1.--.0-
-*1-**-0---
1---.-0*-01
-.0------11
00.--11.-.1
01-0-.--1--
--00---001-
0-----1--0-
0---.1--1-0
----*--1--0
-----------
-----------
-10-0-1----
------0----

Generation = 8, Population = 83.
*10*-0-----
0.-.-0.*.*-
-*1.----0--
*.01-11--*0
****-.1-*--
--0---.-.-0
.-.-..1..-*
1*.1..-*.-.
.--1.-1.---
1.*1*11---.
--***...-..
--1....-*--
------*..11
-.1*--**---
*0--.-0-11-
-1-1.*--*-*
--101--1*0-
0-0-.1.*-1-
1***-0*0.--
----1-.0---

Generation = 12, Population = 92.
**0.--.1-*1
-.-.-*..*.*
-*-*--*---.
*.111.--0.-
....*..1.0-
.*.*11.-.-*
.1.-.*1..**
*.*...1..-*
**-.*1*..01
1..-**-.1-.
1*...*..**.
-1.*..*-.1*
--1---.*..*
-.*.11..-*.
*-01.--***1
*.*...0*.-.
.***.*-.*-1
11*-.*..-**
**...-*..*-
-1--.1.1.--

*** Life<Cell> 9x18 ***

Generation = 0, Population = 8.
--------------0---
---------------0--
------------------
-----0------------
0---0-------------
------------------
------------------
-------------0---0
------0-----------

*** Life<Cell> 17x20 ***

Generation = 0, Population = 24.
-------0--0---------
--------------------
-----0------------00
------------0-------
-----------------0--
---------------0---0
-----------0--------
----------0---------
-----------------0--
----0-------0-------
------------0-------
-----------0-----0--
--------------------
---0-0--0-----------
--------------0--0--
---------0---0------
--------------------

Generation = 25, Population = 89.
..1****....-.*..-...
.**...*-....*-*..-..
-**....**...-*......
..*....**.**.-*.**..
**.*.**-**..***..*..
1.**.**.*......**...
......*.*.**.***....
1**.*-..-.**..*.....
.**...**.....**.....
......-...*****.-...
..........**.**.....
...-.......*........
..-.-...*-.*........
........*.*.*-1.....
.0....*.*..*.....-..
....-..*...**..-..-1
--.-...-...**.......

*** Life<Cell> 9x11 ***

Generation = 0, Population = 13.
0---0-0----
-0---0-----
0----------
------0----
-----------
---00-----0
-0---------
----0------
-----0-----

*** Life<Cell> 10x9 ***

Generation = 0, Population = 31.
----0--0-
---000--0
0000-000-
000-----0
---------
0-0-0----
0--0-0---
0-0-0--0-
-0---0--0
----0----

Generation = 17, Population = 34.
-.-..***-
...***..*
*.**..*..
*.***...1
****..*.*
....**--.
**....*-.
.-.*.*...
.......**
.-.-**.*-

*** Life<Cell> 15x7 ***

Generation = 0, Population = 20.
0-0----
-------
-0---0-
--0--00
---0---
-------
0---00-
---0---
-------
---0---
-----0-
------0
0---0--
-0-----
---00--

Generation = 3, Population = 51.
11-01--
--*---1
*---01-
-0-1--.
1000*-0
-01*0--
--0--1*
0---0--
-0-0-00
0--1-*1
-00*---
0--1*01
--0*1-*
-0---0-
1--*-*-

Generation = 6, Population = 50.
.**-.-*
--*00--
.-0-1*-
010.*0*
.-*0.-0
001.-*0
--*0...
01-01.1
0-0.*-0
-----.-
*-0*1-0
0--**--
00**--.
--0----
--1.1.0

Generation = 9, Population = 48.
...**-.
01.--1-
.---**0
--1..1.
.-*1*10
1-**-*-
0-.-..*
-.*--.*
*-1*.0*
--01-.-
.*.*--1
---..*.
--*****
0-1-01-
1***1.-

Generation = 12, Population = 38.
.....0.
**.-0.-
.*-*..-
-...*-.
.-*.**.
*-**1.-
--.***.
-**-*.*
*-*..*.
0--.-.1
....---
-0-....
--**...
1-*-111
***.-.1

Generation = 15, Population = 45.
.*...-.
*..-1.-
*.1.**-
*...*-.
....**.
*1.**.-
*-****.
1..0*.*
.0.*...
-.-.0.-
*...--1
-1**.**
01...**
*-.**1-
*.*.1..

*** Life<Cell> 10x8 ***

Generation = 0, Population = 22.
--0-0---
-----0-0
-00----0
0--00--0
------0-
00------
--00--0-
--0--0--
---0----
0---0---

Generation = 18, Population = 41.
-******.
*.*.-*..
*.**...*
*.**..**
..*...**
***1..**
..*.....
..**-**0
.*..**..
.*****..

Generation = 36, Population = 15.
........
....*.*.
......*.
...*....
......*.
....*..*
.....***
......*.
....*.*.
....**..

*** Life<Cell> 10x20 ***

Generation = 0, Population = 2.
--------------------
--------------------
--------------------
--------------------
--------------------
---0----------------
------------------0-
--------------------
--------------------
--------------------

*** Life<Cell> 14x17 ***

Generation = 0, Population = 32.
--0----0---0000--
--00----------0--
-----0-0---------
------0----------
--0-00-----0-----
------------0----
--------0--0-----
----------00-----
-0---------------
---------0------0
------0---00-----
-0---------------
-0--0--------0---
--------0--------

Generation = 11, Population = 109.
.**.***-..**001..
*..1.-..1*.....**
*.1..--.11...-.1*
1*--.-..*.**.*11*
--.*.*1-..0.*1.*-
*--.-**.--1.-*..-
*-.-.--1*.0...*.1
0*----...*.*....*
--*00*...1..**-*-
0*--*---.-.0**.0*
**0*-0.1*...*0-**
**0*-.-.*--*0.*1.
*1*.*-...1.*0*.--
1****-***..---101

Generation = 22, Population = 78.
.**...........**.
*.**.-.**.......*
*.**.--*.***.....
........***..**..
.0........*....**
**........*.**..0
..*.....***.*.*..
-.*.......*.*.*..
*.*1.*..**.**.**-
-.-*.*-..-*.*....
*.*..*.***.*.-...
*.-.**.*.....*...
..**....*..***..-
***..-..*...--.-.

Generation = 33, Population = 45.
.................
.....-...........
.................
.................
.........*.......
........*.*......
.....*...........
**..***...*..**..
*.*-..**.*..*..*.
-**....**0..**.**
..*...**....**.**
..**.**.......**.
.....*..........-
..***-......--.-.

*** Life<Cell> 15x10 ***

Generation = 0, Population = 11.
----------
-------00-
-----0----
----------
---------0
0---------
-0--------
----------
----------
0------0-0
-----0----
----------
----------
----------
-------0--

*** Life<Cell> 17x5 ***

Generation = 0, Population = 7.
-----
-----
-----
-0---
-0---
-----
-0---
-----
-----
-----
-----
-----
-----
---0-
----0
---0-
-0---

*** Life<Cell> 20x13 ***

Generation = 0, Population = 29.
--0-----0-0--
-------------
-------------
-------------
---------0---
----0----0---
----0--------
0--0---------
--0----------
---0-0-------
-------------
-0-----------
--0------0---
0-------0----
------0----0-
---0-----0---
-------------
----00-------
-----0-0---0-
0----00------

Generation = 10, Population = 121.
--*0-1---.*00
*1.**--01.01-
01--**-0..*-0
-..-1--1-.-00
-0.-.*...1--1
*-*.---*1.*.*
*0*-*.*-*.-1-
*.-1*-..1.-00
*1.-01-*10--0
..-.*10..00--
.1--.1-1*.-.-
**1.*1*0*--*-
1--***.*-00--
-....0****..-
*-.-1.-*.-.**
..-**-.-*01-*
0*.10--**.1--
10.**--**.*--
111.1.*--.---
1*.--*..*-.0-

Generation = 20, Population = 85.
.1.*...*.....
*******.**..1
-..-*..-.****
.*..**...*1.*
-..-.....1.--
...*.-.......
.-.*.....*..-
...*.*****0--
..***...*1...
...**.......0
....*-..*.1.-
....**.-*--.1
..1.***.1*--0
*....1.....**
.**-..-*.*...
*.-..-.*.....
0**.1--*..-.*
**.***.......
.*****...*...
-.........*--

Generation = 30, Population = 43.
.............
.*...........
**.0.***.....
*.*.**.*...**
....****..*-*
..........*.*
.-.......**.-
..........*.*
.........*..*
.........*..*
.............
.........-**.
.*....*.-..0-
*.....*......
......*......
.*...*.......
....*.....-..
...*.........
.............
...........-0

*** Life<Cell> 5x12 ***

Generation = 0, Population = 22.
-----0--000-
00--0-0----0
0-0-0-0000-0
--00-----0-0
-0----------

*** Life<Cell> 20x19 ***

Generation = 0, Population = 17.
----0-----------0--
-------------------
-------------------
-----0-------------
-------------0-----
-------------------
-------------------
-----0-------------
---0---------------
--------------0----
--------0---0------
0---00-------------
-------------------
-------------------
-------------------
-------------------
-------------------
--------0----------
0-----------0-0----
--------------0----

*** Life<Cell> 20x18 ***

Generation = 0, Population = 12.
------------------
------------------
------------------
---0--------------
------------------
------------------
---0-------------0
------------------
------------------
------------------
0-----------------
------------------
------------------
------0--0---0----
0-------------0--0
-------------0----
------------------
-0----------------
------------------
------------------

*** Life<Cell> 13x17 ***

Generation = 0, Population = 31.
-------0-------0-
---0-------------
---0-------000---
0----------------
---0-------0----0
0-0------0---0---
0--------0-------
-----------------
---0-0-------0---
---0---0---0--0--
----0-0----0-0---
-----------------
-----0--0-------0

*** Life<Cell> 20x14 ***

Generation = 0, Population = 15.
--------------
-0------0---0-
------------0-
----0---------
--------------
--------------
-0------------
--------------
--------------
--------------
0-------------
--------------
--------------
----0---------
-------0------
------0---0---
-------0------
--------00----
--------------
--------0-----

*** Life<Cell> 18x10 ***

Generation = 0, Population = 32.
0---------
-0-----00-
00--0----0
----------
--------0-
---0------
-----0----
-00-------
----------
----------
-00-------
0-00000--0
--00------
----00----
----0---0-
------0---
----------
------000-

*** Life<Cell> 20x20 ***

Generation = 0, Population = 33.
0-------------------
-0--0-----0--0------
---------0-----0----
-0------------------
---------0-0-------0
----0--0-00---0---0-
-----------0--------
---------------0----
------0-------------
0-------------------
-------------0------
--0----0-----0------
-----------000------
--------------0-----
--------------------
--------------------
------------0-------
-----------0--------
-0-------------0----
--------------------

Generation = 16, Population = 155.
-.*-1-.-*****..*-*1.
*.*.1..****..***-...
1-........-*1..-.*-.
..**.0.-.--.1...0---
1-**.....-..*.0-*--*
*...*..*....-0..*..-
.***.11**........-..
*.1...0*....***1...*
*-*-*..1--*...-..*.*
*...*.*-*10*.-1*-0-.
*.**..*1.1.**...0**1
*..****..*..-*..**-*
..-**...-.....1--0..
--1**...*-..**-*..--
*001-*0..*.--.-.....
----.-*--..*.-..-1..
--**11.*-*.....****1
-*01-.-..1**.*....01
0--.-1-*1..*.*-***1.
-0-.**-*-1...*..-**.

*** Life<Cell> 10x20 ***

Generation = 0, Population = 11.
--00----------------
--------------------
0-0-----------------
--------------------
--0-----------------
-------------------0
--------------------
----------------0---
-0-0---------------0
----------0---------

Generation = 1, Population = 30.
-0110---------------
0--0----------------
---0----------------
0-------------------
-0-0---------------0
--0---------------0-
----------------0--0
-0-0-----------0-0-0
0---0-----0-----0-0-
-0-0-----0-0-------0

Generation = 2, Population = 30.
-1-*10--------------
--------------------
--010---------------
-------------------0
--0-0---------------
----------------00-0
-000---------------1
----------0---0---01
-0-0-0-----------0-0
--------0-0-0---0---

Generation = 3, Population = 54.
0--.-10-------------
-00--0--------------
-01-10-------------0
---0--------------0-
-0---0----------00--
-0-00----------011-1
01-10-----0---0-00--
--0--0---0-0-0-0--1*
0-----0-0---0-0---01
-0-0-0-0-----0-0---0

Generation = 4, Population = 35.
--1.1-10------------
---0---------------0
0--1*-0-------------
----------------0---
010---0------------0
----------0----1-*--
1-0-----------------
----------0-0------*
--00-0-0-------0-0-*
------0-------0-0--1

Generation = 5, Population = 70.
-1-*--*10----------0
0--10--0----------0-
-01-*--0--------0--0
-0000----------0-0-0
1-10-0-0--0----0000-
-0----0--0-0--0--.01
---1--------0--0-0-1
0--0-0-0-0---0-0-01.
-011--0-0-0-0---0--*
--00---------0-0--0*

Generation = 6, Population = 68.
---*-1**10----------
-0---0----------00-0
----.0010----------1
---1------0---01-101
----0-0-0--------1-0
--------0-0--0-11.--
110*0000-------1-1-*
------0-0---0--10-**
-1**0--0-0---0-0--0*
----0-0-0-0------01*

Generation = 7, Population = 92.
-11.--**-10-----00-0
0-010-0--0-----011-1
-0-1*---100---000---
--0--0-0-0-0-01*---*
--------10---00--*01
0000-0--1--00---**--
*--*--110-0-000---0*
0-----1----0--0*10..
0***-00--------1--1.
-00-1--0-0-0-0-001**

Generation = 8, Population = 49.
-*-.11**--10-------1
---*--1---0--------*
----.-0-*-1---------
----------0----.-1-*
11-0------0------*--
-----------1-0-1*.0-
*--*0------------11.
--0-----0------.-1.*
-..*01---0---0--00**
---0--------------**

Generation = 9, Population = 78.
0.1.*-**11-10-----0*
-00.----00--------0.
---1.01-.--0-----0--
00-1--0-00-0---.0*-.
**--0----01--0-0-*-1
-0--0----------**.11
.1-*10--0--0-0-1---*
00-0-0-0-----0-.--.*
-.**-*0---0-0-0111..
--01-0---0---0--0-.*

Generation = 10, Population = 83.
-.**.-.**--*10---0-*
-1-.00----0-0-----1*
0--**1-1.-110----1--
---*--1-1-0100-.1*0.
..1-100---*-0--1-.0*
--0-----1001--0*.***
.--**-1--00--1-*---*
1-0-0-1---00-1-.11*.
0...-*1-------1-***.
-0---1--0-------1-..

Generation = 11, Population = 92.
-.***1...1-**10-0-0*
---.--1-001------1**
--1*.-1-.0**1----*01
0--.00*0--1*-11.*.-*
..*0*--0--.-1--*-.1.
-01--0-0*1-*--1*.*..
.-0.*-*1--100*0*--1*
*--010-0---1-*-.-*.*
1...-.-00-00----..*.
--0-1*-0-0----00*-..

Generation = 12, Population = 94.
-..***..**1**-1--0-*
---.0-*-1--0-00---..
00***---.-..*-0--.1*
-0-.--.-1--.-****.0*
..*-.0---0.0--0.-*-.
01*-0-01.*0.0--..*.*
.-1..-.*--*--.1*01**
.0-1*11---0-0*-.1*.*
**..-.11101-0011***.
00--*.-10--0-01-.1..

Generation = 13, Population = 88.
-..***.***-**1*00--.
010.-0.-*--1-110-1.*
11***11-.-..*---0*-*
-10.00.0---.-...*.-*
*.*0.--0-1.---1.-*-*
1-*--01-.*-.-0-....*
*1*..0.*0-*0-.**1-.*
*10**--00----.0.*..*
...*-.-**--0--*-....
--01..------0---.**.

*** Life<Cell> 10x12 ***

Generation = 0, Population = 5.
------------
0---------0-
------------
-0---------0
------0-----
------------
------------
------------
------------
------------

Generation = 5, Population = 42.
0-0-0010----
.-.---*0----
000-0000-0--
1---0----.--
0--0-0-0--*0
-00------0*0
00--------00
0-0---0---0-
-0---0-0---0
------0-----

Generation = 10, Population = 40.
*-10-...*1--
**.1-1..-.11
1-.--1.001-0
*..----.-.-.
*11---11--.-
.1.0--011..-
------0---.0
-0--------.1
----0---0---
**10----01.-

Generation = 15, Population = 50.
.-.1-**.*.0-
...*-...*...
-0*0-.*--...
..*-11-.1*-.
...----.*-..
.**0-1.....*
*-10*-.1*0**
*-11-*.001.*
-..-----110*
*.***0--.*.*

Generation = 20, Population = 46.
.1..*...*.--
.**.-..*....
*-*--**.-**.
****.*-.****
...0*-**....
...-*-*.**.*
*..*.1*.....
.1.*-*.-.*..
*..10-**.*1.
.....-.-.*..

*** Life<Cell> 19x20 ***

Generation = 0, Population = 18.
-----------0---0----
--------------------
-------------0-0----
-----------------0-0
----0---------------
------------0-------
0-------------------
--------------------
--------------------
-------0------------
--------------------
--------------------
--00-----0--------0-
--------------------
--------------------
--------0-----------
--------------------
-------0--------0---
-------0------------

*** Life<Cell> 11x12 ***

Generation = 0, Population = 28.
-------0----
----00--0---
----------0-
--0---0--0--
-00----0----
----000-0--0
------0-----
---------0--
-000--------
0---0-0-0--0
0---0-------

Generation = 15, Population = 38.
.........-..
**-..*.1*.-.
*..1..*.*.**
*..*.---.***
*.......1-**
-..*........
*..*........
*.*-.....1..
..*.*...1-*-
..-..10..*.*
-.0*.*.-...1

Generation = 30, Population = 27.
............
..-......**.
.........*.*
...........*
....*.*.....
...**.*.....
..*......**.
.**......*.*
.*..*....*.*
.**.*......*
-.**........

Generation = 45, Population = 11.
............
..-......**.
.........*.*
....**....*.
...*..*.....
....**......
............
............
............
............
-...........

*** Life<Cell> 7x12 ***

Generation = 0, Population = 12.
----------00
------------
--------0-0-
0-----------
------------
-----00-----
--0----000-0

Generation = 10, Population = 32.
--.0----....
-.1*1-.1--11
*..1--.*1.1-
10.0.*10--*1
--*1.*0.**..
.*1-.*....-1
..-.0...0...

Generation = 20, Population = 31.
......-.....
.....1...***
..*11***..-*
...*.***.1.*
.....*-..**.
...*..***..1
..**0.**0...

Generation = 30, Population = 22.
......-.****
........*...
.**.*....***
........*..*
..*..*..***.
..**.*......
....-...*...

Generation = 40, Population = 20.
......-.....
..........**
....***.***.
....***.***.
....**......
.........**.
....-....**.

*** Life<Cell> 19x7 ***

Generation = 0, Population = 28.
--0-00-
0---0--
----0-0
0------
00-0---
------0
000-00-
--0----
-------
-------
--0---0
0--0---
-------
-0--0--
-------
-----0-
0------
0--0---
-------

*** Life<Cell> 7x9 ***

Generation = 0, Population = 23.
0-0-0--0-
-0000----
--00-----
0-------0
-0--00-0-
0---0--00
0--0---0-

*** Life<Cell> 13x13 ***

Generation = 0, Population = 9.
----------0--
-------------
-------------
0------------
--0--0-------
------0------
----------0--
----0--------
-------------
----------0--
0------------
-------------
-------------

*** Life<Cell> 10x19 ***

Generation = 0, Population = 17.
0------------------
-------------------
------------00-----
----------0-----0--
----0--------------
-------------------
-0-0------0---0----
---------------0---
--------0----0-----
--0-0----------00--

Generation = 18, Population = 64.
-..*.1.-***.....**1
-..---*1*-*.....*1*
..*..*.**.1......**
.*1-..*............
.*...*.....-.1*-...
*....**0.1.-.*....1
*.1......*.-**...*.
***-..*-...**.-...*
.*-..1*.1....**.-.1
.0......1..***-***.

*** Life<Cell> 7x16 ***

Generation = 0, Population = 10.
-----0----------
-----0--00--0---
----------0--0--
-----0----------
----------------
------0---------
0---------------

Generation = 1, Population = 27.
----010-00--0---
----010011-0----
--------0--0--0-
----0-0---0--0--
-----00---------
0----0-0--------
-0----0---------

Generation = 2, Population = 29.
---0-*-0--0--0--
---0-*1----1--0-
-----0--1--10--0
---0-01000--0---
0---------0--0--
----01--0-------
--0-------------

Generation = 3, Population = 46.
--01-*0-00--0---
--01-**-1--*----
----0-0-*-0--0--
0-0-----11--1--0
-0-00-00---0--0-
0-001*00-00--0--
-0-000--0-------

Generation = 4, Population = 30.
-0---*---10--0--
-0--0..----*-0--
0----01-*0----00
-0-------*------
0----0----------
--1--.1-011-0---
--0-1-----0--0--

Generation = 5, Population = 52.
010--.0-0*1-010-
-101-.*-1--.-1-0
-0---1*-*-01--11
0-0---1--*0---00
--0-0---0-0-0---
00*01*--1-------
-01--00-0-10--0-

Generation = 6, Population = 61.
1*---.1--**-1*1-
-*1*0.*----.-*-1
-1000**-*0-*0--*
-0100-*01.1-10--
---01-00101--000
11.-*.-0-1-00-0-
------1-1-*100-0

Generation = 7, Population = 62.
**-10**00..-***-
-.*.-.*01-0.0.0*
0*---..0*10*-01.
0-*-10.1*.*0----
0---*---*1--0-11
**.-*.11-*----10
00--10-0-0**110-

Generation = 8, Population = 48.
.*0*-*.1-*.0*.*-
-.**0..-*11.1.1*
-.0-0*.1.--.01-*
-0.--1*-...--0-0
--00*-00.-------
...0*.*-1.-0--*-
--10-111--**----

Generation = 9, Population = 52.
.*1.0..-0*.1*.*-
-...-..0.**.-.-*
-*10-..-*10*--1*
0-.01-.1...--1-1
--11.011.--0-011
...1...--.-100.0
-0*-1***-0**1-0-

Generation = 10, Population = 48.
..*.-..-1*.*...-
-...0..-....1*1*
-*---..1.*1*0-**
--.1*-.*.*.-1*--
00**.1--.-1101-*
.*.*...--.-*1-.1
01*0***.-1*.-1--

Generation = 11, Population = 45.
....0..1*...***0
-...-..0....-.**
0.10-..*.*-.1-.*
0-.-*-*..*.0*.--
11...-11.-**---.
......*--*1.-0.*
1*.1**..1***--00

Generation = 12, Population = 44.
....-..-*....*.-
0..*0.*-....-...
1**1-.**..1**1**
--*-.-*..*.-*.-1
-*...1***1..-1-.
..*.*.*--.*.1-.*
*..***..*..*1-1-

Generation = 13, Population = 39.
....0..1.......-
1..*1**-...*1...
-..--.**..***-**
00.-.-...*.-..-*
1***.*..*-**0-1.
.**....--.*.*-*.
...***.....*----

Generation = 14, Population = 41.
...*1.*-.......-
-..**..0..*.-*..
-*.10.**..*.*-**
--.1.1****.-..0*
-..*.....1*.--**
*....*.-1**.*-..
..***......*--1-

Generation = 15, Population = 36.
...*-*.-.......-
-......1...*-**.
1..*-.....**.1.*
-0.-.*.....-..1.
1....*...*.*01**
..*....1*....0**
...**....***-1-0

Generation = 16, Population = 32.
....-..1.......-
1...*..-..**-**.
-...0.....**.*.*
0-.1*......-..*.
-*....*.*...-*..
...**..**....1..
...*....***.-*11

Generation = 17, Population = 36.
....1..-.......-
-......1..**-**.
-...-*....**.*.*
--.***.....0***.
-.*..*..*...0**.
..***.......*-..
...**..***..1*-*

Generation = 18, Population = 27.
....-..1.......-
-......-..**-**.
-...-**........*
--.*.**...*-...*
-.*..*......1.*.
..*..*.*.*.*.1..
..*.*...*...-*-.

Generation = 19, Population = 31.
....-..-.......-
-.....*1....-.*.
-...0**...**...*
--.........0..**
-.**.*....**-**.
.**.***.*....**.
...*....*...1.1.

Generation = 20, Population = 34.
....-..1.......-
-.....**....-...
-...1***..**...*
--.*..*....-.*.*
-***.**...**-...
.*...***.*.*...*
..****.*....-.*.

Generation = 21, Population = 26.
....-.**.......-
-.......*...-...
-...*.........*.
-0.*.......-*.*.
1*.*......**1.*.
.*.....**..*....
..****.**...-...

Generation = 22, Population = 27.
....-..*.......-
-......*....-...
-............*..
-1.**......-*.**
**........*.-...
**....*******...
..***.***...-...

Generation = 23, Population = 25.
....-..........-
-...........-...
-............**.
-**........0.**.
.......**.*.-*..
*..*.**...**....
.***.**...**1...

Generation = 24, Population = 23.
....-..........-
-...........-...
-...........***.
0..........-....
.**...**.**.1**.
.*.*.*..........
.***.**...*.*...

Generation = 25, Population = 22.
....-..........-
-...........1*..
1............*..
-*.........-....
***...*.....**..
*..*.*.*.**.*...
.*.*.**.........

Generation = 26, Population = 25.
....-..........-
1...........**..
-...........**..
0.*........-**..
*.*...*....***..
*..*.*.*...***..
..*..**.........

Generation = 27, Population = 23.
....-..........-
-...........**..
-*.........*..*.
1..........-..*.
*.**..*.......*.
..****.*...*.*..
....***.....*...

Generation = 28, Population = 22.
....-..........-
-...........**..
-...........*.*.
*.*........0.***
..*..**......**.
.**....*....**..
......*.....*...

Generation = 29, Population = 19.
....-..........-
-...........**..
1..........*...*
.*.........-...*
..**..*........*
.**..*.*....*.*.
............**..

Generation = 30, Population = 21.
....-..........-
1...........*...
-...........*.*.
.**........0..**
...*..*.......**
.***..*.....*.*.
............**..

Generation = 31, Population = 17.
....-..........-
-............*..
1*.........**.**
..*........-....
...*............
..**........*.**
..*.........**..

Generation = 32, Population = 22.
....-..........-
1...........***.
**..........***.
.**........0....
...*............
..**........*.*.
..**........***.

Generation = 33, Population = 23.
....-........*.-
**..........*.*.
*.*........*..*.
***........-**..
.*.*............
....*.......*.*.
..**........*.*.

Generation = 34, Population = 18.
....-........*.-
**..........*.*.
..*........*..*.
*..*.......-**..
**.*........*...
....*...........
...*............

Generation = 35, Population = 22.
....-........*.-
.*..........*.*.
*.*........*..*.
*..*.......-**..
*****.......**..
..***...........
................

Generation = 36, Population = 16.
....-........*.-
.*..........*.*.
*.*........*..*.
*...*......-..*.
*...........**..
....*...........
...*............

Generation = 37, Population = 12.
....-........*.-
.*..........*.*.
*.............**
*..........0*.*.
.............*..
................
................

Generation = 38, Population = 15.
....-........*.-
..............**
**.........**.**
...........1*.**
............**..
................
................

Generation = 39, Population = 11.
....-.........*0
............*..*
...........**...
...........-...*
...........****.
................
................

Generation = 40, Population = 14.
....-.........*-
...........*****
...........**...
...........-..*.
............***.
............**..
................

Generation = 41, Population = 13.
....-.......*.*-
...........*..**
...........*...*
...........1..*.
............*.*.
............*.*.
................

Generation = 42, Population = 20.
....-........**-
...........*****
..........***..*
...........*****
...........**.**
................
................

Generation = 43, Population = 5.
....-..........-
..........*....*
..........*.....
................
...........*...*
................
................

Generation = 44, Population = 1.
....-..........0
................
................
................
................
................
................

Generation = 45, Population = 0.
....-..........-
................
................
................
................
................
................

Generation = 46, Population = 0.
....-..........-
................
................
................
................
................
................

Generation = 47, Population = 0.
....-..........-
................
................
................
................
................
................

Generation = 48, Population = 0.
....-..........-
................
................
................
................
................
................

*** Life<Cell> 13x8 ***

Generation = 0, Population = 25.
---0----
---0----
-0--0-0-
---0----
00-0--00
---0-0--
0----0--
------0-
--00----
-0-0----
-----0--
0-00----
-------0

*** Life<Cell> 13x17 ***

Generation = 0, Population = 11.
-------0---------
-----------------
---------0--0----
-----------------
---------0-------
-----------------
-------0---------
--0--------------
-----------------
-----------------
0----------0-----
-0-------------0-
------0----------

Generation = 9, Population = 97.
------0--1*..---0
00--0--0-0-*--00-
*-00-1.---*.*-*--
--0-0-0--00-10--0
-10--0-1.-0..*00-
*1----10-0--*--1-
*..-0-.-0--*--110
....*0*--0-0--0*0
*-1--**..---1--.-
-100*-*000-00--.-
-..*-*--**-1-.0.0
*-1..--101-.0-00-
.-*1-00*-*.110-0-

Generation = 18, Population = 86.
.*..*.*..***.*1--
1-.-*11.-.....*.-
.-*.1.........*.*
.*.01**-.*.-....-
-1-*..-...-******
*1*1***--..-*.0.-
..*..-.1....*.-*1
.....****1..***.-
...-.***..-0....1
*.**.....-.*-1.**
*.****--....1*...
*.*..-..*..*.--**
.*...-1*...*.*1**

Generation = 27, Population = 70.
.......*.......--
**...-*.**......-
.-..*.*.**.......
*...*..1..**.....
**.*....****.....
..***...0*..**..-
.**..*.***.*.*.**
.*.........*.*.**
.*.*....*..***..*
.........*..****.
*..*...-..******.
***.......***....
.....-...........

*** Life<Cell> 9x10 ***

Generation = 0, Population = 29.
-00------0
----0-----
0---000-0-
-0-----0--
0---0--0-0
--0--0---0
0-0---0---
-0--0-----
--00-0000-

Generation = 24, Population = 31.
-......**.
..*-*1...*
..******1*
.***.**...
*-...*....
.......*..
**.....*1.
*.-.....**
*.*.......

*** Life<Cell> 16x17 ***

Generation = 0, Population = 32.
----0--0-----0-0-
-----0----0--00--
---0----0--------
---0----0-----0--
-----0-------0--0
---0-------0-0--0
-----------------
----------0-0----
-----------0---00
-----------------
-----------------
-----------------
--0--------0-----
----0------------
-----------0----0
------0----0-----

Generation = 16, Population = 116.
***.-.*.**.**.1..
1..-....11-*0*.*1
...**1-..**..1.*0
-.-..-*..1.*...*0
-****--**.-..**..
*...*..**...-....
1**-*..*--..-*...
-*-**.*-1****..-.
00-0**-.*-.0..*.*
-*-..*0-.-...**.*
***.--...**-.**.*
*-*1-.....*-*...*
.1**.....*1..1..-
..**-.*..-***...*
.0*---***.*.-...*
--.10.-.****0***-

*** Life<Cell> 19x17 ***

Generation = 0, Population = 22.
----0------------
-----------------
------0---00-----
---0-0-----------
--------0--------
-------------0---
-----------------
-------------0---
---------------0-
0-------0--------
---00------------
--0--------------
----0------------
----0------------
-------------0---
------0----------
--0--------------
---------0-------
-----------0-----
