*** Life<Cell> 11x14 ***

Generation = 0, Population = 87.
000-0-0000----
0-0-0-0-000000
0000-0000-0--0
-000-0--00-0-0
000--00--000-0
00-00-0-00--0-
--0-00-00-0--0
--0-0-0-----00
0--0---0---0--
--00-0-0000000
0--0--00-0-000

Generation = 1000, Population = 0.
-.............
..............
-.............
..............
..............
..............
..............
..............
..............
....-.........
.......-......

Generation = 2000, Population = 0.
-.............
..............
-.............
..............
..............
..............
..............
..............
..............
....-.........
.......-......

*** Life<Cell> 12x13 ***

Generation = 0, Population = 85.
00-----000-0-
-000--00000--
0-000--000---
-0---000-0--0
--00-0-000-0-
--0-0000-0--0
---00000-0---
00---0-000--0
00-0---0-0000
-000000000000
--0----000-0-
00-0------000

Generation = 1000, Population = 4.
.........**..
.........**..
.............
.............
.............
.............
.............
.............
.............
.............
.............
.............

Generation = 2000, Population = 4.
.........**..
.........**..
.............
.............
.............
.............
.............
.............
.............
.............
.............
.............

*** Life<Cell> 14x13 ***

Generation = 0, Population = 85.
-000-00----00
--0-0-000-00-
0-0-0-0----00
-0000-00-0---
--0-0-0-00---
-00-----000--
----0-0000-0-
000-00000--00
----0-00--00-
00--0---0--00
-0--00--000--
0-0--00---00-
----000------
0--0--0-00--0

Generation = 1000, Population = 12.
-............
..-........**
...........**
.............
.............
.............
-...........-
.............
.............
.............
..**.........
..**....**...
........**...
.............

Generation = 2000, Population = 12.
-............
..-........**
...........**
.............
.............
.............
-...........-
.............
.............
.............
..**.........
..**....**...
........**...
.............

*** Life<Cell> 15x14 ***

Generation = 0, Population = 108.
0---0000--0-00
0--00--00-000-
00-0-0-0---00-
000--00--0--00
000-0-0--0-00-
0--00-0----00-
0-0-000-00--0-
0-0--00-000---
0-0000-0-0---0
-00-----00-0-0
00---0------0-
-0---0---0-0-0
0-000000-0--0-
00-00-0--0--00
0--00-0-0-00-0

Generation = 1000, Population = 0.
..............
....-.........
..............
..............
..............
..............
..............
..............
..............
..............
..............
..............
..............
..............
..............

Generation = 2000, Population = 0.
..............
....-.........
..............
..............
..............
..............
..............
..............
..............
..............
..............
..............
..............
..............
..............

*** Life<Cell> 14x15 ***

Generation = 0, Population = 87.
-0-0----0000-00
----000-----00-
000-000000-0000
----00-------00
-0--0--0--0--00
--00-0------00-
---000-0------0
-00-0000--000--
-0-00---0-0----
-0--00--------0
00--0---0--0-00
0000----0-----0
00---00--0---00
-0--0--0-------

Generation = 1000, Population = 4.
.....-.........
...**..........
...**..........
.-.............
........-......
...............
...............
.......-.......
...............
...............
...............
...............
...............
...............

Generation = 2000, Population = 4.
.....-.........
...**..........
...**..........
.-.............
........-......
...............
...............
.......-.......
...............
...............
...............
...............
...............
...............

*** Life<Cell> 13x13 ***

Generation = 0, Population = 114.
-00-0000-00--
000000000-0-0
-00000-000000
000-0000-0-00
00000-0--0---
--00--0-0000-
-0000---0-000
-----0000-0-0
000----0--000
--00000000000
-0000-000000-
00000-000-0--
00-000-000--0

Generation = 1000, Population = 3.
.-...........
........***..
.............
.............
.............
.............
.............
.............
.............
.............
.-...........
.............
-..-.......--

Generation = 2000, Population = 3.
.-...........
........***..
.............
.............
.............
.............
.............
.............
.............
.............
.-...........
.............
-..-.......--

*** Life<Cell> 13x13 ***

Generation = 0, Population = 95.
000000---000-
----0--0-0-00
0--0-0--0-000
-00000--0--00
-000--0-00-0-
0--0-0------0
--0--000--00-
-0000-00-00-0
00000--0-000-
00-0000000-00
-00--0--00---
0000000--0000
0------00---0

Generation = 1000, Population = 0.
...-.........
.............
.............
-............
.............
.............
.............
.............
.............
.............
.......-.....
.............
.............

Generation = 2000, Population = 0.
...-.........
.............
.............
-............
.............
.............
.............
.............
.............
.............
.......-.....
.............
.............

*** Life<Cell> 13x11 ***

Generation = 0, Population = 87.
0--00-0000-
0-000-00-00
000-000--0-
00-0000--0-
-0-0000000-
0-0-000--00
000---00-0-
00--0--0000
00-00--0000
-0--00000-0
00-------00
0-0--0-0-00
0--0--0--00

Generation = 1000, Population = 11.
.......***-
..-....*..*
...**...**.
...**......
...........
...........
...........
...........
...........
...........
...........
...........
...........

Generation = 2000, Population = 11.
.......***-
..-....*..*
...**...**.
...**......
...........
...........
...........
...........
...........
...........
...........
...........
...........

*** Life<Cell> 11x11 ***

Generation = 0, Population = 82.
0000--0--00
--00-0-0000
00-0-00---0
00000-00-00
0-0000-00--
0-0--0000-0
0000------0
00000--0000
0-000000000
-0-00-00000
000-00--00-

Generation = 1000, Population = 10.
...........
.....*.....
....*.*....
....*.*....
.....*.....
...........
.........**
.........**
..-........
...-.......
...........

Generation = 2000, Population = 10.
...........
.....*.....
....*.*....
....*.*....
.....*.....
...........
.........**
.........**
..-........
...-.......
...........

*** Life<Cell> 12x12 ***

Generation = 0, Population = 82.
0-00000000-0
0--0-000000-
--0---0000--
-0000-0-0---
-00000-00000
--0-0--0--00
--0----0---0
--0--00--0--
0-0--00-0000
0000---00-0-
0-00---00-0-
000000-000-0

Generation = 1000, Population = 3.
...........-
............
............
.......-....
............
............
............
............
.......*....
.-.....*....
.......*.-..
..........-.

Generation = 2000, Population = 3.
...........-
............
............
.......-....
............
............
............
............
.......*....
.-.....*....
.......*.-..
..........-.

