*** Life<FredkinCell> 20x20 ***

Generation = 0, Population = 20.
-00000--------------
------00000---------
-00000--------------
------00000---------
--------------------
--------------------
--------------------
--------------------
--------------------
--------------------
--------------------
--------------------
--------------------
--------------------
--------------------
--------------------
--------------------
--------------------
--------------------
--------------------

Generation = 1, Population = 27.
01---1-0000---------
-----01---10--------
01---10-------------
-0000-1---10--------
------00000---------
--------------------
--------------------
--------------------
--------------------
--------------------
--------------------
--------------------
--------------------
--------------------
--------------------
--------------------
--------------------
--------------------
--------------------
--------------------

Generation = 2, Population = 31.
120-0201------------
----01--0--10-------
1--0--10------------
----10--0--10-------
-00000--------------
------00000---------
--------------------
--------------------
--------------------
--------------------
--------------------
--------------------
--------------------
--------------------
--------------------
--------------------
--------------------
--------------------
--------------------
--------------------

Generation = 3, Population = 51.
2-1--3-2---00-------
-00---10-01210------
-10-01210-----------
0000-----01210------
01--1--0-0000-------
-0000-1---10--------
------00000---------
--------------------
--------------------
--------------------
--------------------
--------------------
--------------------
--------------------
--------------------
--------------------
--------------------
--------------------
--------------------
--------------------

Generation = 4, Population = 57.
-2200-0300----------
--1001-101-3210-----
-2101-3210----------
--11101---23210-----
-20020--------------
------20002---------
-00000--------------
------00000---------
--------------------
--------------------
--------------------
--------------------
--------------------
--------------------
--------------------
--------------------
--------------------
--------------------
--------------------
--------------------

Generation = 5, Population = 66.
2331-3141-00000-----
-02--2-2-2-4--10----
13--2--32-----------
-02--1--0-3---10----
03113-0000-0000-----
-----03---30--------
01---10-------------
-0000-1---10--------
------00000---------
--------------------
--------------------
--------------------
--------------------
--------------------
--------------------
--------------------
--------------------
--------------------
--------------------
--------------------

*** Life<FredkinCell> 10x10 ***

Generation = 0, Population = 41.
--0000----
-0-----00-
---0000000
----000-0-
--0-000-0-
----0--0-0
----0-0---
-----000--
--000--00-
000---0--0

Generation = 1, Population = 45.
--1--1000-
0---------
-0011111-1
--0-1-10--
-0--11-01-
--00--0-0-
---01010-0
--00011---
0---1-0-1-
1---00----

Generation = 2, Population = 53.
00-002--10
---00---00
-11-2-2---
-010---1-0
0-0--2---0
--1-001-1-
--0121-10-
0011-22-00
100---1--0
20-0-1--0-

Generation = 3, Population = 45.
11--1300--
0---1-00--
0---3---0-
---1-0---1
-0---3-0-1
00-0--202-
0-1232-21-
-1--0--0--
2--0-02011
--0----0--

Generation = 4, Population = 53.
-210--1-1-
---0-0----
11--4-2---
001-1111-2
-10-140112
--11-03---
1-234313-0
0--112--00
----11---2
20---1-1-0

Generation = 5, Population = 45.
13--1----0
0--11-0-0-
----5-3--1
----22--03
--10---2--
0-2--1402-
2---5-2411
11---3--11
-0---220--
310--2---1

*** Life<FredkinCell> 30x30 ***

Generation = 0, Population = 86.
---00-00000---------0-00-00---
--0-------0--------------0---0
----000-----------------------
----000-----------------------
----000-----------------------
----000-----------------------
---0-----0--------------------
-----0000---------------------
-----000----------------------
------0-0---------------------
----0------------0---------000
----0-------------------0-----
---0-0---0--0--0000----0---0-0
---------0------------------0-
--0--0--0---------------0---0-
-----------------------00----0
--00-------------00-----------
----0-------------0-----------
----00----------------------0-
--0---------------------------
-0--000-----------------------
------------------------------
----0-----0-------------------
------------------------------
--------------------------0---
------------------------------
-----------------------0-0----
------------------------------
------------------------------
------------------------------

Generation = 1, Population = 170.
---11-1----0-------0--11--10-0
-0---0-00-10--------0-0001--0-
--00-1-0--0--------------0---0
---01-10----------------------
---01-10----------------------
-----1-0-0--------------------
--0----0--0-------------------
---00-111---------------------
----0---0---------------------
----0-10-0-------0---------000
---0100-0-------0-0-----0-01-1
----1----0--0--00-0------0--0-
--0-0-0-0100-001--10--0---0-0-
--00-----10-0--0000----00---1-
-0-00-00----------------10-01-
---0-0--0--------00---01-0----
-011------------01-0---00----0
--0-1-------------10--------0-
--00-10-----------0--------0-0
---0--0---------------------0-
0--01-10----------------------
-0---00---0-------------------
---0-0---0-0------------------
----0-----0---------------0---
-------------------------0-0--
-----------------------0-00---
----------------------0---0---
-----------------------0-0----
------------------------------
------------------------------

Generation = 2, Population = 187.
-00220--0--10-----0--0----210-
0----10-1---0----------1-----0
--1-020--01---------0-00-10---
---1-0-10-0--------------0---0
--0--0-100--------------------
--00--0-----------------------
-0--00-----0------------------
---1--22-00-------------------
-----0-01--------0---------000
-----0-1--0-------------0-----
--01---0-0--0---1010---0-01--2
--0-----01------------0---0-1-
-0101---1-11-1-20-2100--0----0
----0--0---0-----------1--0--0
0-011011-00-0--00-----00---1-0
----0----0--------1--01--10000
012--0--0------01--10---1-----
------0---------0---0--00----0
-0--02-0---------01-------0---
0-----------------0-----------
--0-20210-0-----------------0-
--0---------------------------
-00-01--0---0-------------0---
------------------------------
----0-----0------------001--0-
------------------------------
---------------------0-0-010--
------------------------------
-----------------------0-0----
------------------------------

Generation = 3, Population = 306.
-1-----01002-0---0-00-11-03-1-
---002--2-1-10----0-00-201-0--
00-01---01-00------0--1---10--
--0-1-1---10--------0-0001--0-
-010111-11---------------0---0
---1-1--00-0------------------
0--01100-0--0-----------------
-00--03-111------0---------000
---001012-------0-0-----0-01-1
--0001-----00---0-00------000-
-0-2100101-0-0-02--10---01-1--
---01------000-0-0--0---0-1--0
012--0--212----31-3--1---0---1
00-0---1-101-0----0000-2-0--1-
--1-------10-001100-----10021-
-0--1000-1--0----0---1---2-1--
1-31---0------01-1-2--0-2-000-
0-0-10--0-------1-1-1001-00-0-
--00130-0--------1-00--000-0-0
--0---0-0-0-------10------0-0-
001-3---1--0------0--------0-0
---0--00--0-0-------------0-0-
01--1200-0-0-0-----------0-0--
-00--0--0-0-0----------0000-0-
---0-0---0-0----------01-200-0
----0-----0----------0--0-000-
--------------------0----1-10-
---------------------0----00--
----------------------0---0---
-----------------------0-0----

Generation = 4, Population = 241.
0-0220112-13010-0-01-02-0-41-0
0-0-130---2---0------1-----1--
111-2-00-2----------0-20-12---
001--021-02-------------------
012122--------------0-00-10---
00----0--1---------------0---0
------11-----0---0---------000
-111014--2200-----------0-----
-00-1-1---000--0101----0---2-2
--1--21--00-1---------------1-
0-03-1---2---1-------0-0-2-2-2
0----000------------1--01---11
-230--0-32-10-0-204-0200-1---2
----000-0----1----1-----0---2-
00--101--0--0----1--0---2--3-0
--0-2--------------00---03--0-
21-20--1-0--0012120--010---1-0
1-------10----0-------1-----1-
001-24---00-------------------
0-----1----------------00----0
1--0-0--200------01-------0---
----0-------------0-----------
1---231-0-----0--------0-1--0-
--1---------------------------
-0--010---------------1-------
------------------------------
----0-----0--------0-0-----2-0
------------------------------
--------------------------1---
------------------------------

Generation = 5, Population = 356.
1---312-3---------12--3---5---
-0-024102-3-1-100-00-202010200
222-3-1--31---0----0-031-23---
1-2-1-3---30------------------
1-3---11--0--------0--11--10-0
---10-1-0-0--0---0--0-0001-0-1
0-001-220-00--0-0-0-----0001--
0-2-1-5-1331---00-0------0--0-
0-102--1-0111001--20--0---0-0-
0------10--02--0000--0---0-0-0
1--4--0103----0--------10----3
1---1-11---0000-000020-120--22
-3-1-0-0-3-211--3---------0-03
0-0--11-11-10---0020-00-1----0
11-121-1--10----1---10-0--0---
-0-0--00-----0000--1--1--401-0
-233-00-01001-2---1--121-00---
-000-0--21--0-1-101---2-------
1-2-35----10--0-------000---00
--0000-00--------01---01100-0-
201-3--13-10----01-0---000-0-0
----100--00---0---10---0-00-0-
-100--2--0---0-0--0---0---00-0
0--0----0-----0-------00-0--0-
0--01-10-------------0-1------
-0---00---0--------0-00----0-0
---0-0---0-0------0---0---1---
----0-----0--------0-0----00-0
-------------------------0-0--
--------------------------0---

*** Life<FredkinCell> 10x10 ***

Generation = 0, Population = 53.
----------
-000000000
-000000000
-000000000
-0000-0000
-000000000
-000000000
----------
----------
----------

Generation = 1, Population = 50.
-000000000
0-1111111-
01-------1
01---1---1
01--1-1--1
01---1---1
0-1111111-
-000000000
----------
----------

Generation = 2, Population = 63.
-111111111
1--22222-0
1--00-00-2
120-----0-
1200---00-
1--00200-2
1--22-22-0
-111111111
-000000000
----------

Generation = 3, Population = 58.
-2-22222--
2--3-3-31-
-----0--03
23-00-001-
231--0----
---11-1103
2--33-331-
--2--2--22
0-1111111-
-000000000

Generation = 4, Population = 56.
-----3----
--142-2---
-1---1-014
--011-1---
-4201-1--1
-1---2-214
-0---1-420
-131131133
-0222-2220
-111111111

Generation = 5, Population = 53.
--12------
--2-3---10
1-0-0--1-5
-3-2-12-1-
2-31-02--2
1--1-31-25
2--3--35-1
0242242--4
01--3-3--1
0-222-222-

*** Life<FredkinCell> 10x10 ***

Generation = 0, Population = 45.
----------
----------
----------
----------
----------
-000000000
-000000000
-000000000
-000000000
-000000000

Generation = 1, Population = 34.
----------
----------
----------
----------
-000000000
0-1111111-
01-------1
01-------1
01-------1
0-1111111-

Generation = 2, Population = 47.
----------
----------
----------
-000000000
-111111111
1--22222-0
1--00000-2
120-----0-
1--00000-2
102-----2-

Generation = 3, Population = 42.
----------
----------
-000000000
0-1111111-
--2-----22
2--3---31-
----111-03
2-10---0-1
-101---1--
--3-111---

Generation = 4, Population = 59.
----------
-000000000
-111111111
-022222220
-131111133
-0---2-420
--002-2---
-2---0-102
-2---0-202
--412-2---

Generation = 5, Population = 57.
-000000000
0-1111111-
02-------2
01-------1
02422-2--4
211-23--3-
-11-3--0--
23-0-10-1-
13-1-10-1-
--5-31--20

*** Life<FredkinCell> 10x10 ***

Generation = 0, Population = 38.
-00--00--0
-0--000-0-
--0--000--
---0-0000-
----0--00-
--00-0-0--
-0-0--00--
--0----0--
--0-0-0-0-
----00----

Generation = 1, Population = 44.
0-10---0--
01001-10--
-----1--0-
----0-1--0
--00-0-1-0
--1-0-0---
0--10-110-
--1-0-01--
-01-10-0-0
--00-1--0-

Generation = 2, Population = 54.
10-----10-
--11202---
00000-0---
--0------1
-0-1-----1
002-101000
-0021-2210
0-20-0-2-0
0120--010-
---1020---

Generation = 3, Population = 52.
21-000-210
-1-23---0-
1--1-110-0
00100-1-02
-1---001--
1-----2111
0--3----21
1-310----1
--31-0-21-
00------0-

Generation = 4, Population = 50.
3---11-321
02-3-02010
20---221-1
-1-11---1-
02-1-1--0-
2--0---22-
-0-4--2--2
2---1--202
----1--3--
11-1-2--10

Generation = 5, Population = 47.
4---2-0-3-
1---313-21
-10---3--2
0---201-2-
----0-0--1
302-10-3--
0--5-0-223
----20----
-1--2-041-
22--0-0-21

