*** Life<FredkinCell> 193x55 ***

Generation = 0, Population = 71.
................................*............*.........
.......................................................
............................*..........................
.......................................................
................................................*......
..................................................*....
..........*............................................
.......................................................
.............................................*.........
.......................................................
......................................................*
.......................................................
......................................................*
.......................................................
........................................*.*............
.......................................................
.......................................................
.......................................................
.......................................................
.......................................................
.......................................................
...............................................*.......
..........................*............................
............*..........................................
.......................................................
.......................................................
.......................................................
.......*...............................................
....................................................*..
.......................................................
.......................................................
.......................................................
.......................................................
..............................*........................
.......................................................
.......................................................
.......................................................
........................................*.......*......
..*....................................................
.......................................................
.......................................................
.......................................................
.......................*...............................
.......................................................
...........................*..........................*
.......................................................
.......................................................
...............*.......................................
.............................*................*........
.......................................................
.....................................*.................
.......................................................
.............*.........................................
..........................*............................
.......................................................
.......................................................
.......................................................
.......................................................
.......................................................
.......................................................
.......................................................
.......................................................
.......................................................
.......................................................
.......................................................
.......................................................
.....*...........................................*.....
.......................................................
.......................................................
.......................................................
.......................................................
.......................................................
.......................................................
.......................................................
...........................*...........................
.......................................................
.........*.............................................
.......................................................
.......................................................
.......................................................
.........*.............................................
..............*........................................
.......................................................
.........*.............................................
.......................................................
.......................................................
...............................................*.......
.......................................................
.......................................................
........*..............................................
.......................................................
...............................*.......................
.......................................................
.......................................................
........................*...........*..................
.......................................................
.......................................................
.......................................................
.......................................................
.......................................................
..................................................*....
.......................................................
.......................................................
................*......................................
.......................................................
.......................................................
.......................................................
.......................................................
.......................................................
.......................................................
...................*.................*.................
.......................................................
.......................................................
..........*............................................
.......................................................
...*...................................................
.......................................................
.......................................................
.......................................................
..................*....................................
.......................................................
.......................................*...............
.....................................................*.
.......................................................
....................................................*..
.......................................................
.............................................*.........
.......................................................
.......................................................
.......................................................
........................................*..............
.......................................................
.......................................................
.......................................................
.........*.............................................
.......................................................
...................................*...................
.......................................................
.......................................................
.......................................................
.......................................................
.......................................................
.......................................................
*......................................................
.......................................................
..........................................*............
.......................................................
.......................................................
.................*.....................................
........................*...............*..............
.......................................................
.......................................................
..*....................................................
.......................................................
.......................................................
.......................................................
.......................................................
.......................................................
.......................................................
.......................................................
....*...........................................*......
.......................................................
.......................................................
.......................................................
.......................................................
...*...................................................
.......................................................
.......................................................
.......................................................
.......................................................
.......................................................
.......................................................
.........................................*.............
.......................................................
.......................................................
.......................................................
.......................................................
.......................................................
.......................................................
.......................................................
.......................................................
.......................................................
.......................................................
...........*...........................................
.......................................................
.......................................................
....................................*..................
.......................................................
.......................................................
..............................................**.......
........................*..............................
.......................................................
..........................................*............

*** Life<FredkinCell> 76x47 ***

Generation = 0, Population = 124.
*.................*............................
...........*.............*.....................
.....*.........................................
..*....*.........................*.............
...........*...........*.......................
...............................................
...*...........................................
.................................*.............
.....*.........................................
.....*.........................................
..................*............................
....*........*.....*.....*..........*..........
................................*..............
.............................*............*...*
.........................*..........*..........
..*............................................
...............................................
...............................................
....*..........................................
.*............*........................*.*.....
.........*.....................................
*.....*....*...................................
..*...................................*..*.....
...............................................
..............................*...............*
..........................*...........*........
..*.......................*.........*..........
................*.......*..................*...
.....................*....*....................
...............................................
..........................................*....
.*.............................................
................*...*......*............*......
.....*....*..........*........*................
....*.............................*............
...................*.....................**....
..*..............*.*.......*...................
.......................*.......................
........................*.....*................
.................*.........*...................
.............................................*.
...*....................................*......
..*............................................
.....................................*.........
....*..........*...*...........................
.........................*.....................
..........................................*....
............................*.............*....
...........................*...................
...............................................
...............................................
...............*.*................*..*.........
.................*.............................
.......................**....*..*..............
........*......................................
............................*..................
...........................*...................
.....*.....................*...................
................*.......*......................
........................................*..**..
...............................................
...............................*...*...........
.*.............................................
..................................*............
...............................................
.............*..............*.........*........
.....*.....................................*...
...........*...................................
...............................................
...............................................
.....*.........................................
.........................*....*................
*.*............................................
...............................................
...............................................
........................*......*...............

*** Life<FredkinCell> 91x17 ***

Generation = 0, Population = 84.
.................
.....*......*....
.........*....*..
.........*.......
.................
...*.............
...*.............
....*............
...**........*...
.....*.........*.
.................
.................
.................
.............*...
.................
...*.............
.................
.................
..*..............
.................
...*........*....
*.........*......
.....*....*......
............*....
.................
.................
..........*......
......*..........
.................
.................
.................
.................
.........*.......
.................
....*............
.................
.............*...
..............**.
.................
..**.............
.................
.................
*.*...*..........
..........*...*..
.................
...*.*........*..
........*........
.................
.................
.......*.........
.*...............
..**...........*.
.................
......*....*.....
..............*..
...............*.
.....*...*.......
.................
.................
........*........
.....**........*.
......**...*.....
.*...............
*.*..............
................*
.....*...........
..............*..
..........*......
................*
.................
........*........
.................
.................
.................
.................
................*
................*
.................
.................
.................
.................
.................
.......*..*.**...
...**............
........*.....*..
.....*..........*
.................
....*...........*
.................
..........*......
...*.............

Generation = 44, Population = 0.
.................
.................
.................
.................
.................
.................
.................
.................
.................
.................
.................
.................
.................
.................
.................
.................
.................
.................
.................
.................
.................
.................
.................
.................
.................
.................
.................
.................
.................
.................
.................
.................
.................
.................
.................
.................
.................
.................
.................
.................
.................
.................
.................
.................
.................
.................
.................
.................
.................
.................
.................
.................
.................
.................
.................
.................
.................
.................
.................
.................
.................
.................
.................
.................
.................
.................
.................
.................
.................
.................
.................
.................
.................
.................
.................
.................
.................
.................
.................
.................
.................
.................
.................
.................
.................
.................
.................
.................
.................
.................
.................

Generation = 88, Population = 0.
.................
.................
.................
.................
.................
.................
.................
.................
.................
.................
.................
.................
.................
.................
.................
.................
.................
.................
.................
.................
.................
.................
.................
.................
.................
.................
.................
.................
.................
.................
.................
.................
.................
.................
.................
.................
.................
.................
.................
.................
.................
.................
.................
.................
.................
.................
.................
.................
.................
.................
.................
.................
.................
.................
.................
.................
.................
.................
.................
.................
.................
.................
.................
.................
.................
.................
.................
.................
.................
.................
.................
.................
.................
.................
.................
.................
.................
.................
.................
.................
.................
.................
.................
.................
.................
.................
.................
.................
.................
.................
.................

*** Life<FredkinCell> 178x166 ***

Generation = 0, Population = 138.
......................................................................................................................................................................
......................................................................................................................................................................
......................................................................................................................................................................
..................................................................................................................................................*...................
..........................*........................................................................................................*..................................
..........................*...........................................................................................................................................
......................................................................................................................................................................
....................................................................................................................*.................................................
.....................*....................................................................*..............................*............................................
......................................................................................................................................................................
......................................................................................................................................................................
...................................................*..................................................................................................................
......................................................................................................................................................................
........................................................................................................*.............................................................
......................................................................................................................................................................
......................................................................................................................................................................
.............*...............................................................................................................................*........................
..................*...................................................................................................................................................
.........................................*......................................................................................................................*.....
......................................................................................................................................................................
................................................................................................................................................*.....................
......................................................................................................................................................................
..................................................................*..................................................................................................*
.....................................*................................................................................................................................
......................................................................................................................................................................
............................................................................................................................................*.........................
..............................................................*.......................................................................................................
.....................................................................................................*................................................................
.*....................................................................................................................................................................
..............................................................................................................................................................*.......
..........................................................................................................................................*...........................
......................................................................................................................................................................
.....................................................................................................*...*........................................*...................
......................................................................................................................................................................
............*............................................*............................................................................................................
.........................................................................................*........................................................*...................
...................................................................................................................................*..................................
..................................................................................................*...................................................................
..................................................................................................................*...................................................
............................*.........................................................................................................................................
......................................................................................................................................................................
......................................................................................................................................................................
....................................................................................*.................................................................................
......................................................................................................................................................................
...................................................................*..................................................................................................
.....................................................................................................................................................*................
......................................................................................................................................................................
......................................................................................................................................................................
......................................................................................................................................................................
......................................................................................................................................................................
......................................................................................................................................................................
......................................................................................................................................................................
......................................................................................................................................................................
.......................................................................................*........*.............................................*.......................
.......................................*..............................................................................................................................
................................................*..............................*......................................................................................
................................*.....................................................................................*...............................................
........................................................................*.............................................................................................
......................................................................................................................................................................
......................................................................................................................................................................
......................................................................................................................................................................
...*..................................................................................................................................................................
...........................................*......................................................................................................................*...
..*...................................................................................................................................................................
......................................................................................................................................................................
.........................................................................................................................................*............................
......................................................................................................................................................................
......................................................................................................................................................................
......................................................................................................................................................................
......................................................................................................*..........*...................................*................
......................................................................................................................................................................
......................................................................................................................................................................
......................................................................................................................................................................
.........................................................................................................................................................*............
.................*..................................................................................*.................................................................
......................................................................................................................................................................
......................................................................................................................................................................
............................................*.........................................................................................................................
......................................................................................................................................................................
.............................................................................................*........................................................................
........................................*.............................................................................................................................
......................................................................................................................................................................
......................................................................................................................................................................
...........................................................................................................................................*..........................
......................................................................................................................................................................
......................................................................................................................................................................
.....................*.*..............................................................................................................................................
......................................................................................................................................................................
......................................................................................................................................................................
......................................................................................................................................................................
.....................................................................................................*.....................................................*..........
......................................................................................................................................................................
......................................................................................................................................................................
......................................................................................................................................................................
....................*............*....................................................................................................................................
...........................................................................*..........................................................................................
.......................................................*..............................................................................................................
......................................................................................................................................................................
......................................*..........................................................................*.....................*..............................
......................................................................................................................................................................
.........................................................................................*.................................*..........................................
......................................................................................................................................................................
......................................................................................................................................................................
......................................................................................................................................................................
.........................................................*..................................................................*.....*...................................
......................................................................................................................................................................
....................................................................................................................*.................................................
......................................................................................................................................................................
................*.....................................................................................................................................................
......................................................................................................................................................................
................................................................................................................................................................*.....
.................................................................................................................*..........................*.........................
......................................................................................................................................................................
..........................*...........................................................................................................................................
......................................................................................................................................................................
........................................................................*.............................................................................................
...........................*..................................................................................*.....................................*.................
....................*..............................................................................................................................*..................
......................................................................................................................................................................
......................................................................................................................................................................
................*.......................................*..............................................................*..............................................
......................................................................................................................................................................
............................................................................................*...................................................................*.....
......................................................................................................................................................................
......................*.............................................................................................................................................*.
....................................................................................................................................................................*.
......................................................................................................................................................................
................*.....................................................................................................................................................
..*...................................................................................................................................................................
......................................................................................................................................................................
.....*................................................................................................................................................................
..................................................................................................................................................*...................
..............................*.......................................................................................................................................
......................................................................................................................................................................
..........................................................................................................................................................*....*......
......................................................................................................................................................................
.........................................................................................*.*........................*.....................................*...........
.........................................................................................*............................................................................
......................................................................................................................................................................
......................................................................................................................................................................
......................................................................................................................................................................
......................................................................................................................................................................
.......................................*..............................................................................................................................
........................*..............................................................................................................................*..............
......................................................................................................................................................................
......................................................................................................................................................................
......................................................................................................................................................................
.......*..............................................................................................................................................................
.............................*....................................................................*...................................................................
......................................................................................................................................................................
......................................................................................................................................................................
........................................................................................................................*.............................................
...................*..................................................................................................................................................
.......................................*..................................*..........................................................*................................
..................................................................................................................................*...................................
......................................................................................................................................................................
...............................................................................*......................................................................................
......................................................................................................................................................................
......................................................................................................................................................................
..........................................................................................................*...........................................................
............................................................................................................................*.........................................
................*.....................................................................................................................................................
......................................................................................................................................................................
............*....................*....................................................................................................................................
......................................................................................................................................................................
......................................................................................................................................................................
......................................................................................................................................................................
............................*.................................*.....................................*.................................................................
......................................................................................................................................................................
......................................................................................................................................................................
....................................................*............................................*....................................................................
.............................................................................................................................................................*........
......................................................................................................................................................................
......................................................................................................................................................................
...........................................................*..........................................................................................................
.............................................................................*........................................................................................
....................................*.................................................................................................................................
......................................................................................................................................................................

Generation = 74, Population = 0.
......................................................................................................................................................................
......................................................................................................................................................................
......................................................................................................................................................................
......................................................................................................................................................................
......................................................................................................................................................................
......................................................................................................................................................................
......................................................................................................................................................................
......................................................................................................................................................................
......................................................................................................................................................................
......................................................................................................................................................................
......................................................................................................................................................................
......................................................................................................................................................................
......................................................................................................................................................................
......................................................................................................................................................................
......................................................................................................................................................................
......................................................................................................................................................................
......................................................................................................................................................................
......................................................................................................................................................................
......................................................................................................................................................................
......................................................................................................................................................................
......................................................................................................................................................................
......................................................................................................................................................................
......................................................................................................................................................................
......................................................................................................................................................................
......................................................................................................................................................................
......................................................................................................................................................................
......................................................................................................................................................................
......................................................................................................................................................................
......................................................................................................................................................................
......................................................................................................................................................................
......................................................................................................................................................................
......................................................................................................................................................................
......................................................................................................................................................................
......................................................................................................................................................................
......................................................................................................................................................................
......................................................................................................................................................................
......................................................................................................................................................................
......................................................................................................................................................................
......................................................................................................................................................................
......................................................................................................................................................................
......................................................................................................................................................................
......................................................................................................................................................................
......................................................................................................................................................................
......................................................................................................................................................................
......................................................................................................................................................................
......................................................................................................................................................................
......................................................................................................................................................................
......................................................................................................................................................................
......................................................................................................................................................................
......................................................................................................................................................................
......................................................................................................................................................................
......................................................................................................................................................................
......................................................................................................................................................................
......................................................................................................................................................................
......................................................................................................................................................................
......................................................................................................................................................................
......................................................................................................................................................................
......................................................................................................................................................................
......................................................................................................................................................................
......................................................................................................................................................................
......................................................................................................................................................................
......................................................................................................................................................................
......................................................................................................................................................................
......................................................................................................................................................................
......................................................................................................................................................................
......................................................................................................................................................................
......................................................................................................................................................................
......................................................................................................................................................................
......................................................................................................................................................................
......................................................................................................................................................................
......................................................................................................................................................................
......................................................................................................................................................................
......................................................................................................................................................................
......................................................................................................................................................................
......................................................................................................................................................................
......................................................................................................................................................................
......................................................................................................................................................................
......................................................................................................................................................................
......................................................................................................................................................................
......................................................................................................................................................................
......................................................................................................................................................................
......................................................................................................................................................................
......................................................................................................................................................................
......................................................................................................................................................................
......................................................................................................................................................................
......................................................................................................................................................................
......................................................................................................................................................................
......................................................................................................................................................................
......................................................................................................................................................................
......................................................................................................................................................................
......................................................................................................................................................................
......................................................................................................................................................................
......................................................................................................................................................................
......................................................................................................................................................................
......................................................................................................................................................................
......................................................................................................................................................................
......................................................................................................................................................................
......................................................................................................................................................................
......................................................................................................................................................................
......................................................................................................................................................................
......................................................................................................................................................................
......................................................................................................................................................................
......................................................................................................................................................................
......................................................................................................................................................................
......................................................................................................................................................................
......................................................................................................................................................................
......................................................................................................................................................................
......................................................................................................................................................................
......................................................................................................................................................................
......................................................................................................................................................................
......................................................................................................................................................................
......................................................................................................................................................................
......................................................................................................................................................................
......................................................................................................................................................................
......................................................................................................................................................................
......................................................................................................................................................................
......................................................................................................................................................................
......................................................................................................................................................................
......................................................................................................................................................................
......................................................................................................................................................................
......................................................................................................................................................................
......................................................................................................................................................................
......................................................................................................................................................................
......................................................................................................................................................................
......................................................................................................................................................................
......................................................................................................................................................................
......................................................................................................................................................................
......................................................................................................................................................................
......................................................................................................................................................................
......................................................................................................................................................................
......................................................................................................................................................................
......................................................................................................................................................................
......................................................................................................................................................................
......................................................................................................................................................................
......................................................................................................................................................................
......................................................................................................................................................................
......................................................................................................................................................................
......................................................................................................................................................................
......................................................................................................................................................................
......................................................................................................................................................................
......................................................................................................................................................................
......................................................................................................................................................................
......................................................................................................................................................................
......................................................................................................................................................................
......................................................................................................................................................................
......................................................................................................................................................................
......................................................................................................................................................................
......................................................................................................................................................................
......................................................................................................................................................................
......................................................................................................................................................................
......................................................................................................................................................................
......................................................................................................................................................................
......................................................................................................................................................................
......................................................................................................................................................................
......................................................................................................................................................................
......................................................................................................................................................................
......................................................................................................................................................................
......................................................................................................................................................................
......................................................................................................................................................................
......................................................................................................................................................................
......................................................................................................................................................................
......................................................................................................................................................................
......................................................................................................................................................................
......................................................................................................................................................................
......................................................................................................................................................................
......................................................................................................................................................................
......................................................................................................................................................................
......................................................................................................................................................................
......................................................................................................................................................................
......................................................................................................................................................................
......................................................................................................................................................................
......................................................................................................................................................................
......................................................................................................................................................................
......................................................................................................................................................................
......................................................................................................................................................................
......................................................................................................................................................................
......................................................................................................................................................................
......................................................................................................................................................................

*** Life<FredkinCell> 66x171 ***

Generation = 0, Population = 185.
.................................................*...........*.............................................................................................................
................................................................................................................................................*..........................
...*..............................................*.................................................................................................................*......
...........*...............................................................................................*......................*........................................
.......................................................................................................*.......*...........................................................
.........*..............................................................*..................................................................................................
.....................................................................................................*............................................*..............*.........
.................................................*.............*.......*.........................*..........*...............*..............................................
........*.............*......................................................................*...........*.......................*.........................................
.....*..........*......................................................................................................................*...................................
...................................................*.........................*.......................*.*.................*.................................................
*........*.................................................................................................................................................................
....................................................................................................*......................................................................
........*.............................................*................................................*....*.............................*................................
........................................................................................................................................................................*..
.*................................*.......................................................................*....................................*..............*............
................................................................*..........................................................................................................
...........................................*.............*...............**................................................................................................
........................*...................................................................................................................*..............................
...........*..............*.........................................................................................*......................................................
.........................................*..............*.................................*................................................................................
..........................................................................................*................................................................................
..........................................*.....*..........................................................................................................................
................................*..............*..........................................................................*................................................
.......................*...............................................................................................................*......................*............
............................................................*................................................................................................*.............
................................................................**.........................................................................................................
...*.........................................................................................*.............................................................................
..................................................................*...................*.................................*.........................................*........
...........................................................................................................................................................................
........................*.................................*................................................................................................................
...............................................................................................................*...........................................................
......*......*.....................................................................................................................................*..........*............
....................*.............................*....................................................*...................................................................
..........................*.................................................*...*.......................*.............*................*...................................
........*......................................................................*.................*....................................................................*....
............................................................................................................................................*..............................
........................*.................................*..........................................................*...............................*.....................
.............................*.................*.........................................................*................................................*................
.......................................................................*...................................................................................*......*........
.....................................................................................*.......................*.......................................................*.....
..........................*.............................*..................................................................................................................
.................*.........................*...............................................................................................................................
..........................................*...........**..................................................................................*................................
............*..........................................................................................*...................................................................
............................................................*.........................................................................*..........................*.........
.............*.............................................**................................................*.*.......**..................................................
....*...............................*............................*.........................................................................................................
........................*.....................................................*..............*..............................*..............................................
..............................*.....................................................................................................*......................................
...................................*...................................................................................................................................*...
..................................................*.......................*....*..*.........*........*.....................................................................
.....................................................*.................................................*.............................................................*.....
.........................................................................*.................................................................................................
..................................................................................*........................................................................*...............
............................................................................*..................................................*...........................................
...........................*...............................................................*...............................................................................
...........................................................................................................................................................................
.....................................*.....................................................................................................................................
.............*..................*..........................................................................................................................................
..............*....................................*......................................*.......................................*..................................*.....
................................*..............................................*...................................................*.......................................
.....................*..................................................................................................................................*..................
.............*..................*............................*...........*..................................................................................*..............
....................*......................................................................................................................................................
.......*......................................................................................................*.................................*..........................

